^C:\USERS\ADMIN\SOURCE\REPOS\BEAMFORMING_MAIN\BEAMFORMING_MAIN\BEAMFORMING_MAIN.CPP
C:\WINDOWS\GLOBALIZATION\SORTING\SORTDEFAULT.NLS
C:\PROGRAM FILES (X86)\MICROSOFT VISUAL STUDIO\2019\COMMUNITY\VC\TOOLS\MSVC\14.29.30133\BIN\HOSTX86\X64\1049\CLUI.DLL
C:\WINDOWS\SYSTEM32\TZRES.DLL
C:\USERS\ADMIN\SOURCE\REPOS\BEAMFORMING_MAIN\BEAMFORMING_MAIN\GNUPLOT-IOSTREAM.H
C:\PROGRAM FILES (X86)\MICROSOFT VISUAL STUDIO\2019\COMMUNITY\VC\TOOLS\MSVC\14.29.30133\INCLUDE\CSTDIO
C:\PROGRAM FILES (X86)\MICROSOFT VISUAL STUDIO\2019\COMMUNITY\VC\TOOLS\MSVC\14.29.30133\INCLUDE\YVALS_CORE.H
C:\PROGRAM FILES (X86)\MICROSOFT VISUAL STUDIO\2019\COMMUNITY\VC\TOOLS\MSVC\14.29.30133\INCLUDE\VCRUNTIME.H
C:\PROGRAM FILES (X86)\MICROSOFT VISUAL STUDIO\2019\COMMUNITY\VC\TOOLS\MSVC\14.29.30133\INCLUDE\SAL.H
C:\PROGRAM FILES (X86)\MICROSOFT VISUAL STUDIO\2019\COMMUNITY\VC\TOOLS\MSVC\14.29.30133\INCLUDE\CONCURRENCYSAL.H
C:\PROGRAM FILES (X86)\MICROSOFT VISUAL STUDIO\2019\COMMUNITY\VC\TOOLS\MSVC\14.29.30133\INCLUDE\VADEFS.H
C:\PROGRAM FILES (X86)\MICROSOFT VISUAL STUDIO\2019\COMMUNITY\VC\TOOLS\MSVC\14.29.30133\INCLUDE\XKEYCHECK.H
C:\PROGRAM FILES (X86)\WINDOWS KITS\10\INCLUDE\10.0.19041.0\UCRT\STDIO.H
C:\PROGRAM FILES (X86)\WINDOWS KITS\10\INCLUDE\10.0.19041.0\UCRT\CORECRT.H
C:\PROGRAM FILES (X86)\WINDOWS KITS\10\INCLUDE\10.0.19041.0\UCRT\CORECRT_WSTDIO.H
C:\PROGRAM FILES (X86)\WINDOWS KITS\10\INCLUDE\10.0.19041.0\UCRT\CORECRT_STDIO_CONFIG.H
C:\PROGRAM FILES (X86)\MICROSOFT VISUAL STUDIO\2019\COMMUNITY\VC\TOOLS\MSVC\14.29.30133\INCLUDE\FSTREAM
C:\PROGRAM FILES (X86)\MICROSOFT VISUAL STUDIO\2019\COMMUNITY\VC\TOOLS\MSVC\14.29.30133\INCLUDE\ISTREAM
C:\PROGRAM FILES (X86)\MICROSOFT VISUAL STUDIO\2019\COMMUNITY\VC\TOOLS\MSVC\14.29.30133\INCLUDE\OSTREAM
C:\PROGRAM FILES (X86)\MICROSOFT VISUAL STUDIO\2019\COMMUNITY\VC\TOOLS\MSVC\14.29.30133\INCLUDE\IOS
C:\PROGRAM FILES (X86)\MICROSOFT VISUAL STUDIO\2019\COMMUNITY\VC\TOOLS\MSVC\14.29.30133\INCLUDE\XLOCNUM
C:\PROGRAM FILES (X86)\MICROSOFT VISUAL STUDIO\2019\COMMUNITY\VC\TOOLS\MSVC\14.29.30133\INCLUDE\CLIMITS
C:\PROGRAM FILES (X86)\MICROSOFT VISUAL STUDIO\2019\COMMUNITY\VC\TOOLS\MSVC\14.29.30133\INCLUDE\LIMITS.H
C:\PROGRAM FILES (X86)\MICROSOFT VISUAL STUDIO\2019\COMMUNITY\VC\TOOLS\MSVC\14.29.30133\INCLUDE\CMATH
C:\PROGRAM FILES (X86)\MICROSOFT VISUAL STUDIO\2019\COMMUNITY\VC\TOOLS\MSVC\14.29.30133\INCLUDE\YVALS.H
C:\PROGRAM FILES (X86)\WINDOWS KITS\10\INCLUDE\10.0.19041.0\UCRT\CRTDBG.H
C:\PROGRAM FILES (X86)\MICROSOFT VISUAL STUDIO\2019\COMMUNITY\VC\TOOLS\MSVC\14.29.30133\INCLUDE\VCRUNTIME_NEW_DEBUG.H
C:\PROGRAM FILES (X86)\MICROSOFT VISUAL STUDIO\2019\COMMUNITY\VC\TOOLS\MSVC\14.29.30133\INCLUDE\VCRUNTIME_NEW.H
C:\PROGRAM FILES (X86)\MICROSOFT VISUAL STUDIO\2019\COMMUNITY\VC\TOOLS\MSVC\14.29.30133\INCLUDE\CRTDEFS.H
C:\PROGRAM FILES (X86)\MICROSOFT VISUAL STUDIO\2019\COMMUNITY\VC\TOOLS\MSVC\14.29.30133\INCLUDE\USE_ANSI.H
C:\PROGRAM FILES (X86)\MICROSOFT VISUAL STUDIO\2019\COMMUNITY\VC\TOOLS\MSVC\14.29.30133\INCLUDE\CSTDLIB
C:\PROGRAM FILES (X86)\WINDOWS KITS\10\INCLUDE\10.0.19041.0\UCRT\MATH.H
C:\PROGRAM FILES (X86)\WINDOWS KITS\10\INCLUDE\10.0.19041.0\UCRT\CORECRT_MATH.H
C:\PROGRAM FILES (X86)\WINDOWS KITS\10\INCLUDE\10.0.19041.0\UCRT\STDLIB.H
C:\PROGRAM FILES (X86)\WINDOWS KITS\10\INCLUDE\10.0.19041.0\UCRT\CORECRT_MALLOC.H
C:\PROGRAM FILES (X86)\WINDOWS KITS\10\INCLUDE\10.0.19041.0\UCRT\CORECRT_SEARCH.H
C:\PROGRAM FILES (X86)\WINDOWS KITS\10\INCLUDE\10.0.19041.0\UCRT\STDDEF.H
C:\PROGRAM FILES (X86)\WINDOWS KITS\10\INCLUDE\10.0.19041.0\UCRT\CORECRT_WSTDLIB.H
C:\PROGRAM FILES (X86)\MICROSOFT VISUAL STUDIO\2019\COMMUNITY\VC\TOOLS\MSVC\14.29.30133\INCLUDE\XTR1COMMON
C:\PROGRAM FILES (X86)\MICROSOFT VISUAL STUDIO\2019\COMMUNITY\VC\TOOLS\MSVC\14.29.30133\INCLUDE\INTRIN0.H
C:\PROGRAM FILES (X86)\MICROSOFT VISUAL STUDIO\2019\COMMUNITY\VC\TOOLS\MSVC\14.29.30133\INCLUDE\INTRIN0.INL.H
C:\PROGRAM FILES (X86)\MICROSOFT VISUAL STUDIO\2019\COMMUNITY\VC\TOOLS\MSVC\14.29.30133\INCLUDE\ITERATOR
C:\PROGRAM FILES (X86)\MICROSOFT VISUAL STUDIO\2019\COMMUNITY\VC\TOOLS\MSVC\14.29.30133\INCLUDE\IOSFWD
C:\PROGRAM FILES (X86)\MICROSOFT VISUAL STUDIO\2019\COMMUNITY\VC\TOOLS\MSVC\14.29.30133\INCLUDE\CSTRING
C:\PROGRAM FILES (X86)\WINDOWS KITS\10\INCLUDE\10.0.19041.0\UCRT\STRING.H
C:\PROGRAM FILES (X86)\WINDOWS KITS\10\INCLUDE\10.0.19041.0\UCRT\CORECRT_MEMORY.H
C:\PROGRAM FILES (X86)\WINDOWS KITS\10\INCLUDE\10.0.19041.0\UCRT\CORECRT_MEMCPY_S.H
C:\PROGRAM FILES (X86)\WINDOWS KITS\10\INCLUDE\10.0.19041.0\UCRT\ERRNO.H
C:\PROGRAM FILES (X86)\MICROSOFT VISUAL STUDIO\2019\COMMUNITY\VC\TOOLS\MSVC\14.29.30133\INCLUDE\VCRUNTIME_STRING.H
C:\PROGRAM FILES (X86)\WINDOWS KITS\10\INCLUDE\10.0.19041.0\UCRT\CORECRT_WSTRING.H
C:\PROGRAM FILES (X86)\MICROSOFT VISUAL STUDIO\2019\COMMUNITY\VC\TOOLS\MSVC\14.29.30133\INCLUDE\CWCHAR
C:\PROGRAM FILES (X86)\WINDOWS KITS\10\INCLUDE\10.0.19041.0\UCRT\WCHAR.H
C:\PROGRAM FILES (X86)\WINDOWS KITS\10\INCLUDE\10.0.19041.0\UCRT\CORECRT_WCONIO.H
C:\PROGRAM FILES (X86)\WINDOWS KITS\10\INCLUDE\10.0.19041.0\UCRT\CORECRT_WCTYPE.H
C:\PROGRAM FILES (X86)\WINDOWS KITS\10\INCLUDE\10.0.19041.0\UCRT\CORECRT_WDIRECT.H
C:\PROGRAM FILES (X86)\WINDOWS KITS\10\INCLUDE\10.0.19041.0\UCRT\CORECRT_WIO.H
C:\PROGRAM FILES (X86)\WINDOWS KITS\10\INCLUDE\10.0.19041.0\UCRT\CORECRT_SHARE.H
C:\PROGRAM FILES (X86)\WINDOWS KITS\10\INCLUDE\10.0.19041.0\UCRT\CORECRT_WPROCESS.H
C:\PROGRAM FILES (X86)\WINDOWS KITS\10\INCLUDE\10.0.19041.0\UCRT\CORECRT_WTIME.H
C:\PROGRAM FILES (X86)\WINDOWS KITS\10\INCLUDE\10.0.19041.0\UCRT\SYS\STAT.H
C:\PROGRAM FILES (X86)\WINDOWS KITS\10\INCLUDE\10.0.19041.0\UCRT\SYS\TYPES.H
C:\PROGRAM FILES (X86)\MICROSOFT VISUAL STUDIO\2019\COMMUNITY\VC\TOOLS\MSVC\14.29.30133\INCLUDE\XSTDDEF
C:\PROGRAM FILES (X86)\MICROSOFT VISUAL STUDIO\2019\COMMUNITY\VC\TOOLS\MSVC\14.29.30133\INCLUDE\CSTDDEF
C:\PROGRAM FILES (X86)\MICROSOFT VISUAL STUDIO\2019\COMMUNITY\VC\TOOLS\MSVC\14.29.30133\INCLUDE\INITIALIZER_LIST
C:\PROGRAM FILES (X86)\MICROSOFT VISUAL STUDIO\2019\COMMUNITY\VC\TOOLS\MSVC\14.29.30133\INCLUDE\XUTILITY
C:\PROGRAM FILES (X86)\MICROSOFT VISUAL STUDIO\2019\COMMUNITY\VC\TOOLS\MSVC\14.29.30133\INCLUDE\UTILITY
C:\PROGRAM FILES (X86)\MICROSOFT VISUAL STUDIO\2019\COMMUNITY\VC\TOOLS\MSVC\14.29.30133\INCLUDE\TYPE_TRAITS
C:\PROGRAM FILES (X86)\MICROSOFT VISUAL STUDIO\2019\COMMUNITY\VC\TOOLS\MSVC\14.29.30133\INCLUDE\CSTDINT
C:\PROGRAM FILES (X86)\MICROSOFT VISUAL STUDIO\2019\COMMUNITY\VC\TOOLS\MSVC\14.29.30133\INCLUDE\STDINT.H
C:\PROGRAM FILES (X86)\MICROSOFT VISUAL STUDIO\2019\COMMUNITY\VC\TOOLS\MSVC\14.29.30133\INCLUDE\STREAMBUF
C:\PROGRAM FILES (X86)\MICROSOFT VISUAL STUDIO\2019\COMMUNITY\VC\TOOLS\MSVC\14.29.30133\INCLUDE\XIOSBASE
C:\PROGRAM FILES (X86)\WINDOWS KITS\10\INCLUDE\10.0.19041.0\UCRT\SHARE.H
C:\PROGRAM FILES (X86)\MICROSOFT VISUAL STUDIO\2019\COMMUNITY\VC\TOOLS\MSVC\14.29.30133\INCLUDE\SYSTEM_ERROR
C:\PROGRAM FILES (X86)\MICROSOFT VISUAL STUDIO\2019\COMMUNITY\VC\TOOLS\MSVC\14.29.30133\INCLUDE\__MSVC_SYSTEM_ERROR_ABI.HPP
C:\PROGRAM FILES (X86)\MICROSOFT VISUAL STUDIO\2019\COMMUNITY\VC\TOOLS\MSVC\14.29.30133\INCLUDE\CERRNO
C:\PROGRAM FILES (X86)\MICROSOFT VISUAL STUDIO\2019\COMMUNITY\VC\TOOLS\MSVC\14.29.30133\INCLUDE\STDEXCEPT
C:\PROGRAM FILES (X86)\MICROSOFT VISUAL STUDIO\2019\COMMUNITY\VC\TOOLS\MSVC\14.29.30133\INCLUDE\EXCEPTION
C:\PROGRAM FILES (X86)\WINDOWS KITS\10\INCLUDE\10.0.19041.0\UCRT\MALLOC.H
C:\PROGRAM FILES (X86)\MICROSOFT VISUAL STUDIO\2019\COMMUNITY\VC\TOOLS\MSVC\14.29.30133\INCLUDE\VCRUNTIME_EXCEPTION.H
C:\PROGRAM FILES (X86)\MICROSOFT VISUAL STUDIO\2019\COMMUNITY\VC\TOOLS\MSVC\14.29.30133\INCLUDE\EH.H
C:\PROGRAM FILES (X86)\WINDOWS KITS\10\INCLUDE\10.0.19041.0\UCRT\CORECRT_TERMINATE.H
C:\PROGRAM FILES (X86)\MICROSOFT VISUAL STUDIO\2019\COMMUNITY\VC\TOOLS\MSVC\14.29.30133\INCLUDE\XSTRING
C:\PROGRAM FILES (X86)\MICROSOFT VISUAL STUDIO\2019\COMMUNITY\VC\TOOLS\MSVC\14.29.30133\INCLUDE\XMEMORY
C:\PROGRAM FILES (X86)\MICROSOFT VISUAL STUDIO\2019\COMMUNITY\VC\TOOLS\MSVC\14.29.30133\INCLUDE\LIMITS
C:\PROGRAM FILES (X86)\MICROSOFT VISUAL STUDIO\2019\COMMUNITY\VC\TOOLS\MSVC\14.29.30133\INCLUDE\CFLOAT
C:\PROGRAM FILES (X86)\WINDOWS KITS\10\INCLUDE\10.0.19041.0\UCRT\FLOAT.H
C:\PROGRAM FILES (X86)\MICROSOFT VISUAL STUDIO\2019\COMMUNITY\VC\TOOLS\MSVC\14.29.30133\INCLUDE\ISA_AVAILABILITY.H
C:\PROGRAM FILES (X86)\MICROSOFT VISUAL STUDIO\2019\COMMUNITY\VC\TOOLS\MSVC\14.29.30133\INCLUDE\NEW
C:\PROGRAM FILES (X86)\MICROSOFT VISUAL STUDIO\2019\COMMUNITY\VC\TOOLS\MSVC\14.29.30133\INCLUDE\XATOMIC.H
C:\PROGRAM FILES (X86)\MICROSOFT VISUAL STUDIO\2019\COMMUNITY\VC\TOOLS\MSVC\14.29.30133\INCLUDE\XPOLYMORPHIC_ALLOCATOR.H
C:\PROGRAM FILES (X86)\MICROSOFT VISUAL STUDIO\2019\COMMUNITY\VC\TOOLS\MSVC\14.29.30133\INCLUDE\TUPLE
C:\PROGRAM FILES (X86)\MICROSOFT VISUAL STUDIO\2019\COMMUNITY\VC\TOOLS\MSVC\14.29.30133\INCLUDE\XCALL_ONCE.H
C:\PROGRAM FILES (X86)\MICROSOFT VISUAL STUDIO\2019\COMMUNITY\VC\TOOLS\MSVC\14.29.30133\INCLUDE\XERRC.H
C:\PROGRAM FILES (X86)\MICROSOFT VISUAL STUDIO\2019\COMMUNITY\VC\TOOLS\MSVC\14.29.30133\INCLUDE\ATOMIC
C:\PROGRAM FILES (X86)\MICROSOFT VISUAL STUDIO\2019\COMMUNITY\VC\TOOLS\MSVC\14.29.30133\INCLUDE\XTHREADS.H
C:\PROGRAM FILES (X86)\MICROSOFT VISUAL STUDIO\2019\COMMUNITY\VC\TOOLS\MSVC\14.29.30133\INCLUDE\XTIMEC.H
C:\PROGRAM FILES (X86)\MICROSOFT VISUAL STUDIO\2019\COMMUNITY\VC\TOOLS\MSVC\14.29.30133\INCLUDE\CTIME
C:\PROGRAM FILES (X86)\WINDOWS KITS\10\INCLUDE\10.0.19041.0\UCRT\TIME.H
C:\PROGRAM FILES (X86)\MICROSOFT VISUAL STUDIO\2019\COMMUNITY\VC\TOOLS\MSVC\14.29.30133\INCLUDE\XLOCALE
C:\PROGRAM FILES (X86)\MICROSOFT VISUAL STUDIO\2019\COMMUNITY\VC\TOOLS\MSVC\14.29.30133\INCLUDE\MEMORY
C:\PROGRAM FILES (X86)\MICROSOFT VISUAL STUDIO\2019\COMMUNITY\VC\TOOLS\MSVC\14.29.30133\INCLUDE\TYPEINFO
C:\PROGRAM FILES (X86)\MICROSOFT VISUAL STUDIO\2019\COMMUNITY\VC\TOOLS\MSVC\14.29.30133\INCLUDE\VCRUNTIME_TYPEINFO.H
C:\PROGRAM FILES (X86)\MICROSOFT VISUAL STUDIO\2019\COMMUNITY\VC\TOOLS\MSVC\14.29.30133\INCLUDE\XFACET
C:\PROGRAM FILES (X86)\MICROSOFT VISUAL STUDIO\2019\COMMUNITY\VC\TOOLS\MSVC\14.29.30133\INCLUDE\XLOCINFO
C:\PROGRAM FILES (X86)\MICROSOFT VISUAL STUDIO\2019\COMMUNITY\VC\TOOLS\MSVC\14.29.30133\INCLUDE\XLOCINFO.H
C:\PROGRAM FILES (X86)\MICROSOFT VISUAL STUDIO\2019\COMMUNITY\VC\TOOLS\MSVC\14.29.30133\INCLUDE\CCTYPE
C:\PROGRAM FILES (X86)\WINDOWS KITS\10\INCLUDE\10.0.19041.0\UCRT\CTYPE.H
C:\PROGRAM FILES (X86)\MICROSOFT VISUAL STUDIO\2019\COMMUNITY\VC\TOOLS\MSVC\14.29.30133\INCLUDE\CLOCALE
C:\PROGRAM FILES (X86)\WINDOWS KITS\10\INCLUDE\10.0.19041.0\UCRT\LOCALE.H
C:\PROGRAM FILES (X86)\MICROSOFT VISUAL STUDIO\2019\COMMUNITY\VC\TOOLS\MSVC\14.29.30133\INCLUDE\IOSTREAM
C:\PROGRAM FILES (X86)\MICROSOFT VISUAL STUDIO\2019\COMMUNITY\VC\TOOLS\MSVC\14.29.30133\INCLUDE\SSTREAM
C:\PROGRAM FILES (X86)\MICROSOFT VISUAL STUDIO\2019\COMMUNITY\VC\TOOLS\MSVC\14.29.30133\INCLUDE\STRING
C:\PROGRAM FILES (X86)\MICROSOFT VISUAL STUDIO\2019\COMMUNITY\VC\TOOLS\MSVC\14.29.30133\INCLUDE\IOMANIP
C:\PROGRAM FILES (X86)\MICROSOFT VISUAL STUDIO\2019\COMMUNITY\VC\TOOLS\MSVC\14.29.30133\INCLUDE\XLOCMON
C:\PROGRAM FILES (X86)\MICROSOFT VISUAL STUDIO\2019\COMMUNITY\VC\TOOLS\MSVC\14.29.30133\INCLUDE\XLOCTIME
C:\PROGRAM FILES (X86)\MICROSOFT VISUAL STUDIO\2019\COMMUNITY\VC\TOOLS\MSVC\14.29.30133\INCLUDE\VECTOR
C:\PROGRAM FILES (X86)\MICROSOFT VISUAL STUDIO\2019\COMMUNITY\VC\TOOLS\MSVC\14.29.30133\INCLUDE\COMPLEX
C:\PROGRAM FILES (X86)\MICROSOFT VISUAL STUDIO\2019\COMMUNITY\VC\TOOLS\MSVC\14.29.30133\INCLUDE\YMATH.H
C:\PROGRAM FILES (X86)\MICROSOFT VISUAL STUDIO\2019\COMMUNITY\VC\TOOLS\MSVC\14.29.30133\INCLUDE\EMMINTRIN.H
C:\PROGRAM FILES (X86)\MICROSOFT VISUAL STUDIO\2019\COMMUNITY\VC\TOOLS\MSVC\14.29.30133\INCLUDE\XMMINTRIN.H
C:\PROGRAM FILES (X86)\MICROSOFT VISUAL STUDIO\2019\COMMUNITY\VC\TOOLS\MSVC\14.29.30133\INCLUDE\MMINTRIN.H
C:\VCPKG\INSTALLED\X64-WINDOWS\INCLUDE\BOOST\IOSTREAMS\DEVICE\FILE_DESCRIPTOR.HPP
C:\VCPKG\INSTALLED\X64-WINDOWS\INCLUDE\BOOST\CSTDINT.HPP
C:\VCPKG\INSTALLED\X64-WINDOWS\INCLUDE\BOOST\CONFIG.HPP
C:\VCPKG\INSTALLED\X64-WINDOWS\INCLUDE\BOOST\CONFIG\USER.HPP
C:\VCPKG\INSTALLED\X64-WINDOWS\INCLUDE\BOOST\CONFIG\DETAIL\SELECT_COMPILER_CONFIG.HPP
C:\VCPKG\INSTALLED\X64-WINDOWS\INCLUDE\BOOST\CONFIG\COMPILER\VISUALC.HPP
C:\VCPKG\INSTALLED\X64-WINDOWS\INCLUDE\BOOST\CONFIG\PRAGMA_MESSAGE.HPP
C:\VCPKG\INSTALLED\X64-WINDOWS\INCLUDE\BOOST\CONFIG\HELPER_MACROS.HPP
C:\VCPKG\INSTALLED\X64-WINDOWS\INCLUDE\BOOST\CONFIG\DETAIL\SELECT_STDLIB_CONFIG.HPP
C:\PROGRAM FILES (X86)\MICROSOFT VISUAL STUDIO\2019\COMMUNITY\VC\TOOLS\MSVC\14.29.30133\INCLUDE\VERSION
C:\VCPKG\INSTALLED\X64-WINDOWS\INCLUDE\BOOST\CONFIG\STDLIB\DINKUMWARE.HPP
C:\VCPKG\INSTALLED\X64-WINDOWS\INCLUDE\BOOST\CONFIG\DETAIL\SELECT_PLATFORM_CONFIG.HPP
C:\VCPKG\INSTALLED\X64-WINDOWS\INCLUDE\BOOST\CONFIG\PLATFORM\WIN32.HPP
C:\VCPKG\INSTALLED\X64-WINDOWS\INCLUDE\BOOST\CONFIG\DETAIL\SUFFIX.HPP
C:\VCPKG\INSTALLED\X64-WINDOWS\INCLUDE\BOOST\CONFIG\DETAIL\CXX_COMPOSITE.HPP
C:\VCPKG\INSTALLED\X64-WINDOWS\INCLUDE\BOOST\IOSTREAMS\CATEGORIES.HPP
C:\VCPKG\INSTALLED\X64-WINDOWS\INCLUDE\BOOST\IOSTREAMS\DETAIL\CONFIG\AUTO_LINK.HPP
C:\VCPKG\INSTALLED\X64-WINDOWS\INCLUDE\BOOST\IOSTREAMS\DETAIL\CONFIG\DYN_LINK.HPP
C:\VCPKG\INSTALLED\X64-WINDOWS\INCLUDE\BOOST\DETAIL\WORKAROUND.HPP
C:\VCPKG\INSTALLED\X64-WINDOWS\INCLUDE\BOOST\CONFIG\WORKAROUND.HPP
C:\VCPKG\INSTALLED\X64-WINDOWS\INCLUDE\BOOST\IOSTREAMS\DETAIL\CONFIG\WINDOWS_POSIX.HPP
C:\VCPKG\INSTALLED\X64-WINDOWS\INCLUDE\BOOST\IOSTREAMS\DETAIL\FILE_HANDLE.HPP
C:\VCPKG\INSTALLED\X64-WINDOWS\INCLUDE\BOOST\IOSTREAMS\DETAIL\IOS.HPP
C:\VCPKG\INSTALLED\X64-WINDOWS\INCLUDE\BOOST\IOSTREAMS\DETAIL\CONFIG\WIDE_STREAMS.HPP
C:\VCPKG\INSTALLED\X64-WINDOWS\INCLUDE\BOOST\IOSTREAMS\DETAIL\PATH.HPP
C:\VCPKG\INSTALLED\X64-WINDOWS\INCLUDE\BOOST\STATIC_ASSERT.HPP
C:\VCPKG\INSTALLED\X64-WINDOWS\INCLUDE\BOOST\TYPE.HPP
C:\VCPKG\INSTALLED\X64-WINDOWS\INCLUDE\BOOST\TYPE_TRAITS\IS_SAME.HPP
C:\VCPKG\INSTALLED\X64-WINDOWS\INCLUDE\BOOST\TYPE_TRAITS\INTEGRAL_CONSTANT.HPP
C:\VCPKG\INSTALLED\X64-WINDOWS\INCLUDE\BOOST\IOSTREAMS\POSITIONING.HPP
C:\VCPKG\INSTALLED\X64-WINDOWS\INCLUDE\BOOST\INTEGER_TRAITS.HPP
C:\VCPKG\INSTALLED\X64-WINDOWS\INCLUDE\BOOST\LIMITS.HPP
C:\VCPKG\INSTALLED\X64-WINDOWS\INCLUDE\BOOST\IOSTREAMS\DETAIL\CONFIG\CODECVT.HPP
C:\PROGRAM FILES (X86)\MICROSOFT VISUAL STUDIO\2019\COMMUNITY\VC\TOOLS\MSVC\14.29.30133\INCLUDE\LOCALE
C:\PROGRAM FILES (X86)\MICROSOFT VISUAL STUDIO\2019\COMMUNITY\VC\TOOLS\MSVC\14.29.30133\INCLUDE\XLOCBUF
C:\PROGRAM FILES (X86)\MICROSOFT VISUAL STUDIO\2019\COMMUNITY\VC\TOOLS\MSVC\14.29.30133\INCLUDE\XLOCMES
C:\VCPKG\INSTALLED\X64-WINDOWS\INCLUDE\BOOST\IOSTREAMS\DETAIL\CONFIG\FPOS.HPP
C:\VCPKG\INSTALLED\X64-WINDOWS\INCLUDE\BOOST\IOSTREAMS\DETAIL\CONFIG\DISABLE_WARNINGS.HPP
C:\VCPKG\INSTALLED\X64-WINDOWS\INCLUDE\BOOST\IOSTREAMS\DETAIL\CONFIG\ENABLE_WARNINGS.HPP
C:\VCPKG\INSTALLED\X64-WINDOWS\INCLUDE\BOOST\SHARED_PTR.HPP
C:\VCPKG\INSTALLED\X64-WINDOWS\INCLUDE\BOOST\SMART_PTR\SHARED_PTR.HPP
C:\VCPKG\INSTALLED\X64-WINDOWS\INCLUDE\BOOST\SMART_PTR\DETAIL\REQUIRES_CXX11.HPP
C:\VCPKG\INSTALLED\X64-WINDOWS\INCLUDE\BOOST\SMART_PTR\DETAIL\SHARED_COUNT.HPP
C:\VCPKG\INSTALLED\X64-WINDOWS\INCLUDE\BOOST\SMART_PTR\BAD_WEAK_PTR.HPP
C:\VCPKG\INSTALLED\X64-WINDOWS\INCLUDE\BOOST\SMART_PTR\DETAIL\SP_COUNTED_BASE.HPP
C:\VCPKG\INSTALLED\X64-WINDOWS\INCLUDE\BOOST\SMART_PTR\DETAIL\SP_HAS_GCC_INTRINSICS.HPP
C:\VCPKG\INSTALLED\X64-WINDOWS\INCLUDE\BOOST\SMART_PTR\DETAIL\SP_HAS_SYNC_INTRINSICS.HPP
C:\VCPKG\INSTALLED\X64-WINDOWS\INCLUDE\BOOST\SMART_PTR\DETAIL\SP_COUNTED_BASE_STD_ATOMIC.HPP
C:\VCPKG\INSTALLED\X64-WINDOWS\INCLUDE\BOOST\SMART_PTR\DETAIL\SP_TYPEINFO_.HPP
C:\VCPKG\INSTALLED\X64-WINDOWS\INCLUDE\BOOST\SMART_PTR\DETAIL\SP_NOEXCEPT.HPP
C:\VCPKG\INSTALLED\X64-WINDOWS\INCLUDE\BOOST\SMART_PTR\DETAIL\SP_COUNTED_IMPL.HPP
C:\VCPKG\INSTALLED\X64-WINDOWS\INCLUDE\BOOST\CORE\CHECKED_DELETE.HPP
C:\VCPKG\INSTALLED\X64-WINDOWS\INCLUDE\BOOST\CORE\ADDRESSOF.HPP
C:\VCPKG\INSTALLED\X64-WINDOWS\INCLUDE\BOOST\SMART_PTR\DETAIL\SP_DISABLE_DEPRECATED.HPP
C:\VCPKG\INSTALLED\X64-WINDOWS\INCLUDE\BOOST\THROW_EXCEPTION.HPP
C:\VCPKG\INSTALLED\X64-WINDOWS\INCLUDE\BOOST\EXCEPTION\EXCEPTION.HPP
C:\VCPKG\INSTALLED\X64-WINDOWS\INCLUDE\BOOST\ASSERT\SOURCE_LOCATION.HPP
C:\VCPKG\INSTALLED\X64-WINDOWS\INCLUDE\BOOST\CURRENT_FUNCTION.HPP
C:\PROGRAM FILES (X86)\MICROSOFT VISUAL STUDIO\2019\COMMUNITY\VC\TOOLS\MSVC\14.29.30133\INCLUDE\FUNCTIONAL
C:\PROGRAM FILES (X86)\MICROSOFT VISUAL STUDIO\2019\COMMUNITY\VC\TOOLS\MSVC\14.29.30133\INCLUDE\UNORDERED_MAP
C:\PROGRAM FILES (X86)\MICROSOFT VISUAL STUDIO\2019\COMMUNITY\VC\TOOLS\MSVC\14.29.30133\INCLUDE\XHASH
C:\PROGRAM FILES (X86)\MICROSOFT VISUAL STUDIO\2019\COMMUNITY\VC\TOOLS\MSVC\14.29.30133\INCLUDE\LIST
C:\PROGRAM FILES (X86)\MICROSOFT VISUAL STUDIO\2019\COMMUNITY\VC\TOOLS\MSVC\14.29.30133\INCLUDE\XBIT_OPS.H
C:\PROGRAM FILES (X86)\MICROSOFT VISUAL STUDIO\2019\COMMUNITY\VC\TOOLS\MSVC\14.29.30133\INCLUDE\XNODE_HANDLE.H
C:\VCPKG\INSTALLED\X64-WINDOWS\INCLUDE\BOOST\SMART_PTR\DETAIL\SP_CONVERTIBLE.HPP
C:\VCPKG\INSTALLED\X64-WINDOWS\INCLUDE\BOOST\SMART_PTR\DETAIL\SP_NULLPTR_T.HPP
C:\VCPKG\INSTALLED\X64-WINDOWS\INCLUDE\BOOST\ASSERT.HPP
C:\PROGRAM FILES (X86)\WINDOWS KITS\10\INCLUDE\10.0.19041.0\UCRT\ASSERT.H
C:\VCPKG\INSTALLED\X64-WINDOWS\INCLUDE\BOOST\SMART_PTR\DETAIL\SPINLOCK_POOL.HPP
C:\VCPKG\INSTALLED\X64-WINDOWS\INCLUDE\BOOST\SMART_PTR\DETAIL\SPINLOCK.HPP
C:\VCPKG\INSTALLED\X64-WINDOWS\INCLUDE\BOOST\SMART_PTR\DETAIL\SPINLOCK_STD_ATOMIC.HPP
C:\VCPKG\INSTALLED\X64-WINDOWS\INCLUDE\BOOST\SMART_PTR\DETAIL\YIELD_K.HPP
C:\VCPKG\INSTALLED\X64-WINDOWS\INCLUDE\BOOST\SMART_PTR\DETAIL\SP_THREAD_PAUSE.HPP
C:\VCPKG\INSTALLED\X64-WINDOWS\INCLUDE\BOOST\SMART_PTR\DETAIL\SP_THREAD_SLEEP.HPP
C:\VCPKG\INSTALLED\X64-WINDOWS\INCLUDE\BOOST\SMART_PTR\DETAIL\SP_WIN32_SLEEP.HPP
C:\PROGRAM FILES (X86)\MICROSOFT VISUAL STUDIO\2019\COMMUNITY\VC\TOOLS\MSVC\14.29.30133\INCLUDE\ALGORITHM
C:\VCPKG\INSTALLED\X64-WINDOWS\INCLUDE\BOOST\SMART_PTR\DETAIL\OPERATOR_BOOL.HPP
C:\VCPKG\INSTALLED\X64-WINDOWS\INCLUDE\BOOST\SMART_PTR\DETAIL\LOCAL_SP_DELETER.HPP
C:\VCPKG\INSTALLED\X64-WINDOWS\INCLUDE\BOOST\SMART_PTR\DETAIL\LOCAL_COUNTED_BASE.HPP
C:\VCPKG\INSTALLED\X64-WINDOWS\INCLUDE\BOOST\CONFIG\ABI_PREFIX.HPP
C:\VCPKG\INSTALLED\X64-WINDOWS\INCLUDE\BOOST\CONFIG\ABI\MSVC_PREFIX.HPP
C:\VCPKG\INSTALLED\X64-WINDOWS\INCLUDE\BOOST\CONFIG\ABI_SUFFIX.HPP
C:\VCPKG\INSTALLED\X64-WINDOWS\INCLUDE\BOOST\CONFIG\ABI\MSVC_SUFFIX.HPP
C:\VCPKG\INSTALLED\X64-WINDOWS\INCLUDE\BOOST\IOSTREAMS\STREAM.HPP
C:\VCPKG\INSTALLED\X64-WINDOWS\INCLUDE\BOOST\IOSTREAMS\CONSTANTS.HPP
C:\VCPKG\INSTALLED\X64-WINDOWS\INCLUDE\BOOST\IOSTREAMS\DETAIL\CHAR_TRAITS.HPP
C:\VCPKG\INSTALLED\X64-WINDOWS\INCLUDE\BOOST\IOSTREAMS\DETAIL\CONFIG\OVERLOAD_RESOLUTION.HPP
C:\VCPKG\INSTALLED\X64-WINDOWS\INCLUDE\BOOST\IOSTREAMS\DETAIL\CONFIG\GCC.HPP
C:\VCPKG\INSTALLED\X64-WINDOWS\INCLUDE\BOOST\IOSTREAMS\DETAIL\FORWARD.HPP
C:\VCPKG\INSTALLED\X64-WINDOWS\INCLUDE\BOOST\IOSTREAMS\DETAIL\CONFIG\LIMITS.HPP
C:\VCPKG\INSTALLED\X64-WINDOWS\INCLUDE\BOOST\IOSTREAMS\DETAIL\PUSH_PARAMS.HPP
C:\VCPKG\INSTALLED\X64-WINDOWS\INCLUDE\BOOST\PREPROCESSOR\ARITHMETIC\DEC.HPP
C:\VCPKG\INSTALLED\X64-WINDOWS\INCLUDE\BOOST\PREPROCESSOR\CONFIG\CONFIG.HPP
C:\VCPKG\INSTALLED\X64-WINDOWS\INCLUDE\BOOST\PREPROCESSOR\ARITHMETIC\INC.HPP
C:\VCPKG\INSTALLED\X64-WINDOWS\INCLUDE\BOOST\PREPROCESSOR\PUNCTUATION\COMMA_IF.HPP
C:\VCPKG\INSTALLED\X64-WINDOWS\INCLUDE\BOOST\PREPROCESSOR\CONTROL\IF.HPP
C:\VCPKG\INSTALLED\X64-WINDOWS\INCLUDE\BOOST\PREPROCESSOR\CONTROL\IIF.HPP
C:\VCPKG\INSTALLED\X64-WINDOWS\INCLUDE\BOOST\PREPROCESSOR\LOGICAL\BOOL.HPP
C:\VCPKG\INSTALLED\X64-WINDOWS\INCLUDE\BOOST\PREPROCESSOR\FACILITIES\EMPTY.HPP
C:\VCPKG\INSTALLED\X64-WINDOWS\INCLUDE\BOOST\PREPROCESSOR\PUNCTUATION\COMMA.HPP
C:\VCPKG\INSTALLED\X64-WINDOWS\INCLUDE\BOOST\PREPROCESSOR\REPETITION\ENUM_BINARY_PARAMS.HPP
C:\VCPKG\INSTALLED\X64-WINDOWS\INCLUDE\BOOST\PREPROCESSOR\CAT.HPP
C:\VCPKG\INSTALLED\X64-WINDOWS\INCLUDE\BOOST\PREPROCESSOR\REPETITION\REPEAT.HPP
C:\VCPKG\INSTALLED\X64-WINDOWS\INCLUDE\BOOST\PREPROCESSOR\DEBUG\ERROR.HPP
C:\VCPKG\INSTALLED\X64-WINDOWS\INCLUDE\BOOST\PREPROCESSOR\DETAIL\AUTO_REC.HPP
C:\VCPKG\INSTALLED\X64-WINDOWS\INCLUDE\BOOST\PREPROCESSOR\TUPLE\EAT.HPP
C:\VCPKG\INSTALLED\X64-WINDOWS\INCLUDE\BOOST\PREPROCESSOR\TUPLE\ELEM.HPP
C:\VCPKG\INSTALLED\X64-WINDOWS\INCLUDE\BOOST\PREPROCESSOR\FACILITIES\EXPAND.HPP
C:\VCPKG\INSTALLED\X64-WINDOWS\INCLUDE\BOOST\PREPROCESSOR\FACILITIES\OVERLOAD.HPP
C:\VCPKG\INSTALLED\X64-WINDOWS\INCLUDE\BOOST\PREPROCESSOR\VARIADIC\SIZE.HPP
C:\VCPKG\INSTALLED\X64-WINDOWS\INCLUDE\BOOST\PREPROCESSOR\FACILITIES\CHECK_EMPTY.HPP
C:\VCPKG\INSTALLED\X64-WINDOWS\INCLUDE\BOOST\PREPROCESSOR\VARIADIC\HAS_OPT.HPP
C:\VCPKG\INSTALLED\X64-WINDOWS\INCLUDE\BOOST\PREPROCESSOR\TUPLE\REM.HPP
C:\VCPKG\INSTALLED\X64-WINDOWS\INCLUDE\BOOST\PREPROCESSOR\TUPLE\DETAIL\IS_SINGLE_RETURN.HPP
C:\VCPKG\INSTALLED\X64-WINDOWS\INCLUDE\BOOST\PREPROCESSOR\FACILITIES\IS_1.HPP
C:\VCPKG\INSTALLED\X64-WINDOWS\INCLUDE\BOOST\PREPROCESSOR\FACILITIES\IS_EMPTY.HPP
C:\VCPKG\INSTALLED\X64-WINDOWS\INCLUDE\BOOST\PREPROCESSOR\FACILITIES\IS_EMPTY_VARIADIC.HPP
C:\VCPKG\INSTALLED\X64-WINDOWS\INCLUDE\BOOST\PREPROCESSOR\PUNCTUATION\IS_BEGIN_PARENS.HPP
C:\VCPKG\INSTALLED\X64-WINDOWS\INCLUDE\BOOST\PREPROCESSOR\PUNCTUATION\DETAIL\IS_BEGIN_PARENS.HPP
C:\VCPKG\INSTALLED\X64-WINDOWS\INCLUDE\BOOST\PREPROCESSOR\FACILITIES\DETAIL\IS_EMPTY.HPP
C:\VCPKG\INSTALLED\X64-WINDOWS\INCLUDE\BOOST\PREPROCESSOR\TUPLE\SIZE.HPP
C:\VCPKG\INSTALLED\X64-WINDOWS\INCLUDE\BOOST\PREPROCESSOR\VARIADIC\ELEM.HPP
C:\VCPKG\INSTALLED\X64-WINDOWS\INCLUDE\BOOST\PREPROCESSOR\REPETITION\ENUM_PARAMS.HPP
C:\VCPKG\INSTALLED\X64-WINDOWS\INCLUDE\BOOST\PREPROCESSOR\REPETITION\REPEAT_FROM_TO.HPP
C:\VCPKG\INSTALLED\X64-WINDOWS\INCLUDE\BOOST\PREPROCESSOR\ARITHMETIC\ADD.HPP
C:\VCPKG\INSTALLED\X64-WINDOWS\INCLUDE\BOOST\PREPROCESSOR\CONTROL\WHILE.HPP
C:\VCPKG\INSTALLED\X64-WINDOWS\INCLUDE\BOOST\PREPROCESSOR\LIST\FOLD_LEFT.HPP
C:\VCPKG\INSTALLED\X64-WINDOWS\INCLUDE\BOOST\PREPROCESSOR\LIST\DETAIL\FOLD_LEFT.HPP
C:\VCPKG\INSTALLED\X64-WINDOWS\INCLUDE\BOOST\PREPROCESSOR\CONTROL\EXPR_IIF.HPP
C:\VCPKG\INSTALLED\X64-WINDOWS\INCLUDE\BOOST\PREPROCESSOR\LIST\ADT.HPP
C:\VCPKG\INSTALLED\X64-WINDOWS\INCLUDE\BOOST\PREPROCESSOR\DETAIL\IS_BINARY.HPP
C:\VCPKG\INSTALLED\X64-WINDOWS\INCLUDE\BOOST\PREPROCESSOR\DETAIL\CHECK.HPP
C:\VCPKG\INSTALLED\X64-WINDOWS\INCLUDE\BOOST\PREPROCESSOR\LOGICAL\COMPL.HPP
C:\VCPKG\INSTALLED\X64-WINDOWS\INCLUDE\BOOST\PREPROCESSOR\LIST\FOLD_RIGHT.HPP
C:\VCPKG\INSTALLED\X64-WINDOWS\INCLUDE\BOOST\PREPROCESSOR\LIST\DETAIL\FOLD_RIGHT.HPP
C:\VCPKG\INSTALLED\X64-WINDOWS\INCLUDE\BOOST\PREPROCESSOR\LIST\REVERSE.HPP
C:\VCPKG\INSTALLED\X64-WINDOWS\INCLUDE\BOOST\PREPROCESSOR\LOGICAL\BITAND.HPP
C:\VCPKG\INSTALLED\X64-WINDOWS\INCLUDE\BOOST\PREPROCESSOR\CONTROL\DETAIL\MSVC\WHILE.HPP
C:\VCPKG\INSTALLED\X64-WINDOWS\INCLUDE\BOOST\PREPROCESSOR\ARITHMETIC\SUB.HPP
C:\VCPKG\INSTALLED\X64-WINDOWS\INCLUDE\BOOST\IOSTREAMS\DETAIL\IOSTREAM.HPP
C:\VCPKG\INSTALLED\X64-WINDOWS\INCLUDE\BOOST\IOSTREAMS\DETAIL\SELECT.HPP
C:\VCPKG\INSTALLED\X64-WINDOWS\INCLUDE\BOOST\TYPE_TRAITS\IS_BASE_AND_DERIVED.HPP
C:\VCPKG\INSTALLED\X64-WINDOWS\INCLUDE\BOOST\TYPE_TRAITS\INTRINSICS.HPP
C:\VCPKG\INSTALLED\X64-WINDOWS\INCLUDE\BOOST\TYPE_TRAITS\DETAIL\CONFIG.HPP
C:\VCPKG\INSTALLED\X64-WINDOWS\INCLUDE\BOOST\VERSION.HPP
C:\VCPKG\INSTALLED\X64-WINDOWS\INCLUDE\BOOST\TYPE_TRAITS\REMOVE_CV.HPP
C:\VCPKG\INSTALLED\X64-WINDOWS\INCLUDE\BOOST\MPL\EVAL_IF.HPP
C:\VCPKG\INSTALLED\X64-WINDOWS\INCLUDE\BOOST\MPL\IF.HPP
C:\VCPKG\INSTALLED\X64-WINDOWS\INCLUDE\BOOST\MPL\AUX_\VALUE_WKND.HPP
C:\VCPKG\INSTALLED\X64-WINDOWS\INCLUDE\BOOST\MPL\AUX_\STATIC_CAST.HPP
C:\VCPKG\INSTALLED\X64-WINDOWS\INCLUDE\BOOST\MPL\AUX_\CONFIG\WORKAROUND.HPP
C:\VCPKG\INSTALLED\X64-WINDOWS\INCLUDE\BOOST\MPL\AUX_\CONFIG\INTEGRAL.HPP
C:\VCPKG\INSTALLED\X64-WINDOWS\INCLUDE\BOOST\MPL\AUX_\CONFIG\MSVC.HPP
C:\VCPKG\INSTALLED\X64-WINDOWS\INCLUDE\BOOST\MPL\AUX_\CONFIG\ETI.HPP
C:\VCPKG\INSTALLED\X64-WINDOWS\INCLUDE\BOOST\MPL\AUX_\NA_SPEC.HPP
C:\VCPKG\INSTALLED\X64-WINDOWS\INCLUDE\BOOST\MPL\LAMBDA_FWD.HPP
C:\VCPKG\INSTALLED\X64-WINDOWS\INCLUDE\BOOST\MPL\VOID_FWD.HPP
C:\VCPKG\INSTALLED\X64-WINDOWS\INCLUDE\BOOST\MPL\AUX_\ADL_BARRIER.HPP
C:\VCPKG\INSTALLED\X64-WINDOWS\INCLUDE\BOOST\MPL\AUX_\CONFIG\ADL.HPP
C:\VCPKG\INSTALLED\X64-WINDOWS\INCLUDE\BOOST\MPL\AUX_\CONFIG\INTEL.HPP
C:\VCPKG\INSTALLED\X64-WINDOWS\INCLUDE\BOOST\MPL\AUX_\CONFIG\GCC.HPP
C:\VCPKG\INSTALLED\X64-WINDOWS\INCLUDE\BOOST\MPL\AUX_\NA.HPP
C:\VCPKG\INSTALLED\X64-WINDOWS\INCLUDE\BOOST\MPL\BOOL.HPP
C:\VCPKG\INSTALLED\X64-WINDOWS\INCLUDE\BOOST\MPL\BOOL_FWD.HPP
C:\VCPKG\INSTALLED\X64-WINDOWS\INCLUDE\BOOST\MPL\INTEGRAL_C_TAG.HPP
C:\VCPKG\INSTALLED\X64-WINDOWS\INCLUDE\BOOST\MPL\AUX_\CONFIG\STATIC_CONSTANT.HPP
C:\VCPKG\INSTALLED\X64-WINDOWS\INCLUDE\BOOST\MPL\AUX_\NA_FWD.HPP
C:\VCPKG\INSTALLED\X64-WINDOWS\INCLUDE\BOOST\MPL\AUX_\CONFIG\CTPS.HPP
C:\VCPKG\INSTALLED\X64-WINDOWS\INCLUDE\BOOST\MPL\AUX_\CONFIG\LAMBDA.HPP
C:\VCPKG\INSTALLED\X64-WINDOWS\INCLUDE\BOOST\MPL\AUX_\CONFIG\TTP.HPP
C:\VCPKG\INSTALLED\X64-WINDOWS\INCLUDE\BOOST\MPL\INT.HPP
C:\VCPKG\INSTALLED\X64-WINDOWS\INCLUDE\BOOST\MPL\INT_FWD.HPP
C:\VCPKG\INSTALLED\X64-WINDOWS\INCLUDE\BOOST\MPL\AUX_\NTTP_DECL.HPP
C:\VCPKG\INSTALLED\X64-WINDOWS\INCLUDE\BOOST\MPL\AUX_\CONFIG\NTTP.HPP
C:\VCPKG\INSTALLED\X64-WINDOWS\INCLUDE\BOOST\MPL\AUX_\INTEGRAL_WRAPPER.HPP
C:\VCPKG\INSTALLED\X64-WINDOWS\INCLUDE\BOOST\MPL\AUX_\LAMBDA_ARITY_PARAM.HPP
C:\VCPKG\INSTALLED\X64-WINDOWS\INCLUDE\BOOST\MPL\AUX_\TEMPLATE_ARITY_FWD.HPP
C:\VCPKG\INSTALLED\X64-WINDOWS\INCLUDE\BOOST\MPL\AUX_\ARITY.HPP
C:\VCPKG\INSTALLED\X64-WINDOWS\INCLUDE\BOOST\MPL\AUX_\CONFIG\DTP.HPP
C:\VCPKG\INSTALLED\X64-WINDOWS\INCLUDE\BOOST\MPL\AUX_\PREPROCESSOR\PARAMS.HPP
C:\VCPKG\INSTALLED\X64-WINDOWS\INCLUDE\BOOST\MPL\AUX_\CONFIG\PREPROCESSOR.HPP
C:\VCPKG\INSTALLED\X64-WINDOWS\INCLUDE\BOOST\PREPROCESSOR\COMMA_IF.HPP
C:\VCPKG\INSTALLED\X64-WINDOWS\INCLUDE\BOOST\PREPROCESSOR\REPEAT.HPP
C:\VCPKG\INSTALLED\X64-WINDOWS\INCLUDE\BOOST\PREPROCESSOR\INC.HPP
C:\VCPKG\INSTALLED\X64-WINDOWS\INCLUDE\BOOST\MPL\AUX_\PREPROCESSOR\ENUM.HPP
C:\VCPKG\INSTALLED\X64-WINDOWS\INCLUDE\BOOST\MPL\AUX_\PREPROCESSOR\DEF_PARAMS_TAIL.HPP
C:\VCPKG\INSTALLED\X64-WINDOWS\INCLUDE\BOOST\MPL\LIMITS\ARITY.HPP
C:\VCPKG\INSTALLED\X64-WINDOWS\INCLUDE\BOOST\PREPROCESSOR\LOGICAL\AND.HPP
C:\VCPKG\INSTALLED\X64-WINDOWS\INCLUDE\BOOST\PREPROCESSOR\IDENTITY.HPP
C:\VCPKG\INSTALLED\X64-WINDOWS\INCLUDE\BOOST\PREPROCESSOR\FACILITIES\IDENTITY.HPP
C:\VCPKG\INSTALLED\X64-WINDOWS\INCLUDE\BOOST\PREPROCESSOR\EMPTY.HPP
C:\VCPKG\INSTALLED\X64-WINDOWS\INCLUDE\BOOST\MPL\AUX_\CONFIG\OVERLOAD_RESOLUTION.HPP
C:\VCPKG\INSTALLED\X64-WINDOWS\INCLUDE\BOOST\MPL\AUX_\LAMBDA_SUPPORT.HPP
C:\VCPKG\INSTALLED\X64-WINDOWS\INCLUDE\BOOST\MPL\IDENTITY.HPP
C:\VCPKG\INSTALLED\X64-WINDOWS\INCLUDE\BOOST\MPL\VOID.HPP
C:\VCPKG\INSTALLED\X64-WINDOWS\INCLUDE\BOOST\IOSTREAMS\STREAM_BUFFER.HPP
C:\VCPKG\INSTALLED\X64-WINDOWS\INCLUDE\BOOST\IOSTREAMS\DETAIL\STREAMBUF\DIRECT_STREAMBUF.HPP
C:\VCPKG\INSTALLED\X64-WINDOWS\INCLUDE\BOOST\CORE\TYPEINFO.HPP
C:\VCPKG\INSTALLED\X64-WINDOWS\INCLUDE\BOOST\CORE\DEMANGLE.HPP
C:\VCPKG\INSTALLED\X64-WINDOWS\INCLUDE\BOOST\IOSTREAMS\DETAIL\ERROR.HPP
C:\VCPKG\INSTALLED\X64-WINDOWS\INCLUDE\BOOST\IOSTREAMS\DETAIL\EXECUTE.HPP
C:\VCPKG\INSTALLED\X64-WINDOWS\INCLUDE\BOOST\PREPROCESSOR\ITERATION\LOCAL.HPP
C:\VCPKG\INSTALLED\X64-WINDOWS\INCLUDE\BOOST\PREPROCESSOR\SLOT\SLOT.HPP
C:\VCPKG\INSTALLED\X64-WINDOWS\INCLUDE\BOOST\PREPROCESSOR\SLOT\DETAIL\DEF.HPP
C:\VCPKG\INSTALLED\X64-WINDOWS\INCLUDE\BOOST\UTILITY\RESULT_OF.HPP
C:\VCPKG\INSTALLED\X64-WINDOWS\INCLUDE\BOOST\TYPE_TRAITS\IS_CLASS.HPP
C:\VCPKG\INSTALLED\X64-WINDOWS\INCLUDE\BOOST\TYPE_TRAITS\IS_POINTER.HPP
C:\VCPKG\INSTALLED\X64-WINDOWS\INCLUDE\BOOST\TYPE_TRAITS\IS_MEMBER_FUNCTION_POINTER.HPP
C:\VCPKG\INSTALLED\X64-WINDOWS\INCLUDE\BOOST\TYPE_TRAITS\DETAIL\IS_MEMBER_FUNCTION_POINTER_CXX_11.HPP
C:\VCPKG\INSTALLED\X64-WINDOWS\INCLUDE\BOOST\TYPE_TRAITS\REMOVE_REFERENCE.HPP
C:\VCPKG\INSTALLED\X64-WINDOWS\INCLUDE\BOOST\TYPE_TRAITS\DECLVAL.HPP
C:\VCPKG\INSTALLED\X64-WINDOWS\INCLUDE\BOOST\TYPE_TRAITS\ADD_RVALUE_REFERENCE.HPP
C:\VCPKG\INSTALLED\X64-WINDOWS\INCLUDE\BOOST\TYPE_TRAITS\IS_VOID.HPP
C:\VCPKG\INSTALLED\X64-WINDOWS\INCLUDE\BOOST\TYPE_TRAITS\IS_REFERENCE.HPP
C:\VCPKG\INSTALLED\X64-WINDOWS\INCLUDE\BOOST\TYPE_TRAITS\IS_LVALUE_REFERENCE.HPP
C:\VCPKG\INSTALLED\X64-WINDOWS\INCLUDE\BOOST\TYPE_TRAITS\IS_RVALUE_REFERENCE.HPP
C:\VCPKG\INSTALLED\X64-WINDOWS\INCLUDE\BOOST\TYPE_TRAITS\CONDITIONAL.HPP
C:\VCPKG\INSTALLED\X64-WINDOWS\INCLUDE\BOOST\TYPE_TRAITS\TYPE_IDENTITY.HPP
C:\VCPKG\INSTALLED\X64-WINDOWS\INCLUDE\BOOST\CORE\ENABLE_IF.HPP
C:\VCPKG\INSTALLED\X64-WINDOWS\INCLUDE\BOOST\UTILITY\DETAIL\RESULT_OF_VARIADIC.HPP
C:\VCPKG\INSTALLED\X64-WINDOWS\INCLUDE\BOOST\PREPROCESSOR\ITERATION\DETAIL\LOCAL.HPP
C:\VCPKG\INSTALLED\X64-WINDOWS\INCLUDE\BOOST\IOSTREAMS\DETAIL\FUNCTIONAL.HPP
C:\VCPKG\INSTALLED\X64-WINDOWS\INCLUDE\BOOST\IOSTREAMS\CLOSE.HPP
C:\VCPKG\INSTALLED\X64-WINDOWS\INCLUDE\BOOST\IOSTREAMS\FLUSH.HPP
C:\VCPKG\INSTALLED\X64-WINDOWS\INCLUDE\BOOST\IOSTREAMS\DETAIL\DISPATCH.HPP
C:\VCPKG\INSTALLED\X64-WINDOWS\INCLUDE\BOOST\IOSTREAMS\TRAITS.HPP
C:\VCPKG\INSTALLED\X64-WINDOWS\INCLUDE\BOOST\IOSTREAMS\DETAIL\BOOL_TRAIT_DEF.HPP
C:\VCPKG\INSTALLED\X64-WINDOWS\INCLUDE\BOOST\IOSTREAMS\DETAIL\TEMPLATE_PARAMS.HPP
C:\VCPKG\INSTALLED\X64-WINDOWS\INCLUDE\BOOST\PREPROCESSOR\CONTROL\EXPR_IF.HPP
C:\VCPKG\INSTALLED\X64-WINDOWS\INCLUDE\BOOST\TYPE_TRAITS\DETAIL\YES_NO_TYPE.HPP
C:\VCPKG\INSTALLED\X64-WINDOWS\INCLUDE\BOOST\IOSTREAMS\DETAIL\IS_ITERATOR_RANGE.HPP
C:\VCPKG\INSTALLED\X64-WINDOWS\INCLUDE\BOOST\IOSTREAMS\DETAIL\SELECT_BY_SIZE.HPP
C:\VCPKG\INSTALLED\X64-WINDOWS\INCLUDE\BOOST\IOSTREAMS\DETAIL\WRAP_UNWRAP.HPP
C:\VCPKG\INSTALLED\X64-WINDOWS\INCLUDE\BOOST\IOSTREAMS\DETAIL\ENABLE_IF_STREAM.HPP
C:\VCPKG\INSTALLED\X64-WINDOWS\INCLUDE\BOOST\UTILITY\ENABLE_IF.HPP
C:\VCPKG\INSTALLED\X64-WINDOWS\INCLUDE\BOOST\IOSTREAMS\TRAITS_FWD.HPP
C:\VCPKG\INSTALLED\X64-WINDOWS\INCLUDE\BOOST\REF.HPP
C:\VCPKG\INSTALLED\X64-WINDOWS\INCLUDE\BOOST\CORE\REF.HPP
C:\VCPKG\INSTALLED\X64-WINDOWS\INCLUDE\BOOST\MPL\OR.HPP
C:\VCPKG\INSTALLED\X64-WINDOWS\INCLUDE\BOOST\MPL\AUX_\CONFIG\USE_PREPROCESSED.HPP
C:\VCPKG\INSTALLED\X64-WINDOWS\INCLUDE\BOOST\MPL\AUX_\NESTED_TYPE_WKND.HPP
C:\VCPKG\INSTALLED\X64-WINDOWS\INCLUDE\BOOST\MPL\AUX_\INCLUDE_PREPROCESSED.HPP
C:\VCPKG\INSTALLED\X64-WINDOWS\INCLUDE\BOOST\MPL\AUX_\CONFIG\COMPILER.HPP
C:\VCPKG\INSTALLED\X64-WINDOWS\INCLUDE\BOOST\PREPROCESSOR\STRINGIZE.HPP
C:\VCPKG\INSTALLED\X64-WINDOWS\INCLUDE\BOOST\MPL\AUX_\PREPROCESSED\PLAIN\OR.HPP
C:\VCPKG\INSTALLED\X64-WINDOWS\INCLUDE\BOOST\RANGE\ITERATOR_RANGE.HPP
C:\VCPKG\INSTALLED\X64-WINDOWS\INCLUDE\BOOST\RANGE\ITERATOR_RANGE_CORE.HPP
C:\VCPKG\INSTALLED\X64-WINDOWS\INCLUDE\BOOST\ITERATOR\ITERATOR_TRAITS.HPP
C:\VCPKG\INSTALLED\X64-WINDOWS\INCLUDE\BOOST\ITERATOR\ITERATOR_FACADE.HPP
C:\VCPKG\INSTALLED\X64-WINDOWS\INCLUDE\BOOST\ITERATOR\INTEROPERABLE.HPP
C:\VCPKG\INSTALLED\X64-WINDOWS\INCLUDE\BOOST\TYPE_TRAITS\IS_CONVERTIBLE.HPP
C:\VCPKG\INSTALLED\X64-WINDOWS\INCLUDE\BOOST\TYPE_TRAITS\IS_COMPLETE.HPP
C:\VCPKG\INSTALLED\X64-WINDOWS\INCLUDE\BOOST\TYPE_TRAITS\IS_FUNCTION.HPP
C:\VCPKG\INSTALLED\X64-WINDOWS\INCLUDE\BOOST\TYPE_TRAITS\DETAIL\IS_FUNCTION_CXX_11.HPP
C:\VCPKG\INSTALLED\X64-WINDOWS\INCLUDE\BOOST\TYPE_TRAITS\IS_ARRAY.HPP
C:\VCPKG\INSTALLED\X64-WINDOWS\INCLUDE\BOOST\ITERATOR\DETAIL\CONFIG_DEF.HPP
C:\VCPKG\INSTALLED\X64-WINDOWS\INCLUDE\BOOST\ITERATOR\DETAIL\CONFIG_UNDEF.HPP
C:\VCPKG\INSTALLED\X64-WINDOWS\INCLUDE\BOOST\ITERATOR\ITERATOR_CATEGORIES.HPP
C:\VCPKG\INSTALLED\X64-WINDOWS\INCLUDE\BOOST\MPL\PLACEHOLDERS.HPP
C:\VCPKG\INSTALLED\X64-WINDOWS\INCLUDE\BOOST\MPL\ARG.HPP
C:\VCPKG\INSTALLED\X64-WINDOWS\INCLUDE\BOOST\MPL\ARG_FWD.HPP
C:\VCPKG\INSTALLED\X64-WINDOWS\INCLUDE\BOOST\MPL\AUX_\NA_ASSERT.HPP
C:\VCPKG\INSTALLED\X64-WINDOWS\INCLUDE\BOOST\MPL\ASSERT.HPP
C:\VCPKG\INSTALLED\X64-WINDOWS\INCLUDE\BOOST\MPL\NOT.HPP
C:\VCPKG\INSTALLED\X64-WINDOWS\INCLUDE\BOOST\MPL\AUX_\YES_NO.HPP
C:\VCPKG\INSTALLED\X64-WINDOWS\INCLUDE\BOOST\MPL\AUX_\CONFIG\ARRAYS.HPP
C:\VCPKG\INSTALLED\X64-WINDOWS\INCLUDE\BOOST\MPL\AUX_\CONFIG\GPU.HPP
C:\VCPKG\INSTALLED\X64-WINDOWS\INCLUDE\BOOST\MPL\AUX_\CONFIG\PP_COUNTER.HPP
C:\VCPKG\INSTALLED\X64-WINDOWS\INCLUDE\BOOST\MPL\AUX_\ARITY_SPEC.HPP
C:\VCPKG\INSTALLED\X64-WINDOWS\INCLUDE\BOOST\MPL\AUX_\ARG_TYPEDEF.HPP
C:\VCPKG\INSTALLED\X64-WINDOWS\INCLUDE\BOOST\MPL\AUX_\PREPROCESSED\PLAIN\ARG.HPP
C:\VCPKG\INSTALLED\X64-WINDOWS\INCLUDE\BOOST\MPL\AUX_\PREPROCESSED\PLAIN\PLACEHOLDERS.HPP
C:\VCPKG\INSTALLED\X64-WINDOWS\INCLUDE\BOOST\ITERATOR\DETAIL\FACADE_ITERATOR_CATEGORY.HPP
C:\VCPKG\INSTALLED\X64-WINDOWS\INCLUDE\BOOST\CORE\USE_DEFAULT.HPP
C:\VCPKG\INSTALLED\X64-WINDOWS\INCLUDE\BOOST\MPL\AND.HPP
C:\VCPKG\INSTALLED\X64-WINDOWS\INCLUDE\BOOST\MPL\AUX_\PREPROCESSED\PLAIN\AND.HPP
C:\VCPKG\INSTALLED\X64-WINDOWS\INCLUDE\BOOST\TYPE_TRAITS\IS_CONST.HPP
C:\VCPKG\INSTALLED\X64-WINDOWS\INCLUDE\BOOST\DETAIL\INDIRECT_TRAITS.HPP
C:\VCPKG\INSTALLED\X64-WINDOWS\INCLUDE\BOOST\TYPE_TRAITS\IS_VOLATILE.HPP
C:\VCPKG\INSTALLED\X64-WINDOWS\INCLUDE\BOOST\TYPE_TRAITS\IS_MEMBER_POINTER.HPP
C:\VCPKG\INSTALLED\X64-WINDOWS\INCLUDE\BOOST\TYPE_TRAITS\REMOVE_POINTER.HPP
C:\VCPKG\INSTALLED\X64-WINDOWS\INCLUDE\BOOST\DETAIL\SELECT_TYPE.HPP
C:\VCPKG\INSTALLED\X64-WINDOWS\INCLUDE\BOOST\ITERATOR\DETAIL\ENABLE_IF.HPP
C:\VCPKG\INSTALLED\X64-WINDOWS\INCLUDE\BOOST\TYPE_TRAITS\ADD_CONST.HPP
C:\VCPKG\INSTALLED\X64-WINDOWS\INCLUDE\BOOST\TYPE_TRAITS\ADD_POINTER.HPP
C:\VCPKG\INSTALLED\X64-WINDOWS\INCLUDE\BOOST\TYPE_TRAITS\ADD_LVALUE_REFERENCE.HPP
C:\VCPKG\INSTALLED\X64-WINDOWS\INCLUDE\BOOST\TYPE_TRAITS\ADD_REFERENCE.HPP
C:\VCPKG\INSTALLED\X64-WINDOWS\INCLUDE\BOOST\TYPE_TRAITS\REMOVE_CONST.HPP
C:\VCPKG\INSTALLED\X64-WINDOWS\INCLUDE\BOOST\TYPE_TRAITS\IS_POD.HPP
C:\VCPKG\INSTALLED\X64-WINDOWS\INCLUDE\BOOST\TYPE_TRAITS\IS_SCALAR.HPP
C:\VCPKG\INSTALLED\X64-WINDOWS\INCLUDE\BOOST\TYPE_TRAITS\IS_ARITHMETIC.HPP
C:\VCPKG\INSTALLED\X64-WINDOWS\INCLUDE\BOOST\TYPE_TRAITS\IS_INTEGRAL.HPP
C:\VCPKG\INSTALLED\X64-WINDOWS\INCLUDE\BOOST\TYPE_TRAITS\IS_FLOATING_POINT.HPP
C:\VCPKG\INSTALLED\X64-WINDOWS\INCLUDE\BOOST\TYPE_TRAITS\IS_ENUM.HPP
C:\VCPKG\INSTALLED\X64-WINDOWS\INCLUDE\BOOST\MPL\ALWAYS.HPP
C:\VCPKG\INSTALLED\X64-WINDOWS\INCLUDE\BOOST\MPL\AUX_\PREPROCESSOR\DEFAULT_PARAMS.HPP
C:\VCPKG\INSTALLED\X64-WINDOWS\INCLUDE\BOOST\MPL\APPLY.HPP
C:\VCPKG\INSTALLED\X64-WINDOWS\INCLUDE\BOOST\MPL\APPLY_FWD.HPP
C:\VCPKG\INSTALLED\X64-WINDOWS\INCLUDE\BOOST\MPL\AUX_\PREPROCESSED\PLAIN\APPLY_FWD.HPP
C:\VCPKG\INSTALLED\X64-WINDOWS\INCLUDE\BOOST\MPL\APPLY_WRAP.HPP
C:\VCPKG\INSTALLED\X64-WINDOWS\INCLUDE\BOOST\MPL\AUX_\HAS_APPLY.HPP
C:\VCPKG\INSTALLED\X64-WINDOWS\INCLUDE\BOOST\MPL\HAS_XXX.HPP
C:\VCPKG\INSTALLED\X64-WINDOWS\INCLUDE\BOOST\MPL\AUX_\TYPE_WRAPPER.HPP
C:\VCPKG\INSTALLED\X64-WINDOWS\INCLUDE\BOOST\MPL\AUX_\CONFIG\HAS_XXX.HPP
C:\VCPKG\INSTALLED\X64-WINDOWS\INCLUDE\BOOST\MPL\AUX_\CONFIG\MSVC_TYPENAME.HPP
C:\VCPKG\INSTALLED\X64-WINDOWS\INCLUDE\BOOST\PREPROCESSOR\ARRAY\ELEM.HPP
C:\VCPKG\INSTALLED\X64-WINDOWS\INCLUDE\BOOST\PREPROCESSOR\ARRAY\DATA.HPP
C:\VCPKG\INSTALLED\X64-WINDOWS\INCLUDE\BOOST\PREPROCESSOR\ARRAY\SIZE.HPP
C:\VCPKG\INSTALLED\X64-WINDOWS\INCLUDE\BOOST\PREPROCESSOR\REPETITION\ENUM_TRAILING_PARAMS.HPP
C:\VCPKG\INSTALLED\X64-WINDOWS\INCLUDE\BOOST\MPL\AUX_\CONFIG\HAS_APPLY.HPP
C:\VCPKG\INSTALLED\X64-WINDOWS\INCLUDE\BOOST\MPL\AUX_\MSVC_NEVER_TRUE.HPP
C:\VCPKG\INSTALLED\X64-WINDOWS\INCLUDE\BOOST\MPL\AUX_\PREPROCESSED\PLAIN\APPLY_WRAP.HPP
C:\VCPKG\INSTALLED\X64-WINDOWS\INCLUDE\BOOST\MPL\LAMBDA.HPP
C:\VCPKG\INSTALLED\X64-WINDOWS\INCLUDE\BOOST\MPL\BIND.HPP
C:\VCPKG\INSTALLED\X64-WINDOWS\INCLUDE\BOOST\MPL\BIND_FWD.HPP
C:\VCPKG\INSTALLED\X64-WINDOWS\INCLUDE\BOOST\MPL\AUX_\CONFIG\BIND.HPP
C:\VCPKG\INSTALLED\X64-WINDOWS\INCLUDE\BOOST\MPL\AUX_\PREPROCESSED\PLAIN\BIND_FWD.HPP
C:\VCPKG\INSTALLED\X64-WINDOWS\INCLUDE\BOOST\MPL\NEXT.HPP
C:\VCPKG\INSTALLED\X64-WINDOWS\INCLUDE\BOOST\MPL\NEXT_PRIOR.HPP
C:\VCPKG\INSTALLED\X64-WINDOWS\INCLUDE\BOOST\MPL\AUX_\COMMON_NAME_WKND.HPP
C:\VCPKG\INSTALLED\X64-WINDOWS\INCLUDE\BOOST\MPL\PROTECT.HPP
C:\VCPKG\INSTALLED\X64-WINDOWS\INCLUDE\BOOST\MPL\AUX_\PREPROCESSED\PLAIN\BIND.HPP
C:\VCPKG\INSTALLED\X64-WINDOWS\INCLUDE\BOOST\MPL\AUX_\FULL_LAMBDA.HPP
C:\VCPKG\INSTALLED\X64-WINDOWS\INCLUDE\BOOST\MPL\QUOTE.HPP
C:\VCPKG\INSTALLED\X64-WINDOWS\INCLUDE\BOOST\MPL\AUX_\HAS_TYPE.HPP
C:\VCPKG\INSTALLED\X64-WINDOWS\INCLUDE\BOOST\MPL\AUX_\CONFIG\BCC.HPP
C:\VCPKG\INSTALLED\X64-WINDOWS\INCLUDE\BOOST\MPL\AUX_\PREPROCESSED\PLAIN\QUOTE.HPP
C:\VCPKG\INSTALLED\X64-WINDOWS\INCLUDE\BOOST\MPL\AUX_\TEMPLATE_ARITY.HPP
C:\VCPKG\INSTALLED\X64-WINDOWS\INCLUDE\BOOST\MPL\AUX_\PREPROCESSED\PLAIN\TEMPLATE_ARITY.HPP
C:\VCPKG\INSTALLED\X64-WINDOWS\INCLUDE\BOOST\MPL\AUX_\PREPROCESSED\PLAIN\FULL_LAMBDA.HPP
C:\VCPKG\INSTALLED\X64-WINDOWS\INCLUDE\BOOST\MPL\AUX_\PREPROCESSED\PLAIN\APPLY.HPP
C:\VCPKG\INSTALLED\X64-WINDOWS\INCLUDE\BOOST\TYPE_TRAITS\IS_ABSTRACT.HPP
C:\VCPKG\INSTALLED\X64-WINDOWS\INCLUDE\BOOST\RANGE\FUNCTIONS.HPP
C:\VCPKG\INSTALLED\X64-WINDOWS\INCLUDE\BOOST\RANGE\BEGIN.HPP
C:\VCPKG\INSTALLED\X64-WINDOWS\INCLUDE\BOOST\RANGE\CONFIG.HPP
C:\VCPKG\INSTALLED\X64-WINDOWS\INCLUDE\BOOST\RANGE\ITERATOR.HPP
C:\VCPKG\INSTALLED\X64-WINDOWS\INCLUDE\BOOST\RANGE\RANGE_FWD.HPP
C:\VCPKG\INSTALLED\X64-WINDOWS\INCLUDE\BOOST\RANGE\MUTABLE_ITERATOR.HPP
C:\VCPKG\INSTALLED\X64-WINDOWS\INCLUDE\BOOST\RANGE\DETAIL\EXTRACT_OPTIONAL_TYPE.HPP
C:\VCPKG\INSTALLED\X64-WINDOWS\INCLUDE\BOOST\RANGE\DETAIL\MSVC_HAS_ITERATOR_WORKAROUND.HPP
C:\VCPKG\INSTALLED\X64-WINDOWS\INCLUDE\BOOST\RANGE\CONST_ITERATOR.HPP
C:\VCPKG\INSTALLED\X64-WINDOWS\INCLUDE\BOOST\RANGE\END.HPP
C:\VCPKG\INSTALLED\X64-WINDOWS\INCLUDE\BOOST\RANGE\DETAIL\IMPLEMENTATION_HELP.HPP
C:\VCPKG\INSTALLED\X64-WINDOWS\INCLUDE\BOOST\RANGE\DETAIL\COMMON.HPP
C:\VCPKG\INSTALLED\X64-WINDOWS\INCLUDE\BOOST\RANGE\DETAIL\SFINAE.HPP
C:\VCPKG\INSTALLED\X64-WINDOWS\INCLUDE\BOOST\RANGE\SIZE.HPP
C:\VCPKG\INSTALLED\X64-WINDOWS\INCLUDE\BOOST\RANGE\SIZE_TYPE.HPP
C:\VCPKG\INSTALLED\X64-WINDOWS\INCLUDE\BOOST\RANGE\DIFFERENCE_TYPE.HPP
C:\VCPKG\INSTALLED\X64-WINDOWS\INCLUDE\BOOST\RANGE\HAS_RANGE_ITERATOR.HPP
C:\VCPKG\INSTALLED\X64-WINDOWS\INCLUDE\BOOST\RANGE\CONCEPTS.HPP
C:\VCPKG\INSTALLED\X64-WINDOWS\INCLUDE\BOOST\CONCEPT_CHECK.HPP
C:\VCPKG\INSTALLED\X64-WINDOWS\INCLUDE\BOOST\CONCEPT\ASSERT.HPP
C:\VCPKG\INSTALLED\X64-WINDOWS\INCLUDE\BOOST\CONCEPT\DETAIL\MSVC.HPP
C:\VCPKG\INSTALLED\X64-WINDOWS\INCLUDE\BOOST\CONCEPT\DETAIL\BACKWARD_COMPATIBILITY.HPP
C:\VCPKG\INSTALLED\X64-WINDOWS\INCLUDE\BOOST\CONCEPT\DETAIL\HAS_CONSTRAINTS.HPP
C:\VCPKG\INSTALLED\X64-WINDOWS\INCLUDE\BOOST\TYPE_TRAITS\CONVERSION_TRAITS.HPP
C:\VCPKG\INSTALLED\X64-WINDOWS\INCLUDE\BOOST\CONCEPT\USAGE.HPP
C:\VCPKG\INSTALLED\X64-WINDOWS\INCLUDE\BOOST\CONCEPT\DETAIL\CONCEPT_DEF.HPP
C:\VCPKG\INSTALLED\X64-WINDOWS\INCLUDE\BOOST\PREPROCESSOR\SEQ\FOR_EACH_I.HPP
C:\VCPKG\INSTALLED\X64-WINDOWS\INCLUDE\BOOST\PREPROCESSOR\REPETITION\FOR.HPP
C:\VCPKG\INSTALLED\X64-WINDOWS\INCLUDE\BOOST\PREPROCESSOR\REPETITION\DETAIL\MSVC\FOR.HPP
C:\VCPKG\INSTALLED\X64-WINDOWS\INCLUDE\BOOST\PREPROCESSOR\SEQ\SEQ.HPP
C:\VCPKG\INSTALLED\X64-WINDOWS\INCLUDE\BOOST\PREPROCESSOR\SEQ\ELEM.HPP
C:\VCPKG\INSTALLED\X64-WINDOWS\INCLUDE\BOOST\PREPROCESSOR\SEQ\SIZE.HPP
C:\VCPKG\INSTALLED\X64-WINDOWS\INCLUDE\BOOST\PREPROCESSOR\SEQ\DETAIL\IS_EMPTY.HPP
C:\VCPKG\INSTALLED\X64-WINDOWS\INCLUDE\BOOST\PREPROCESSOR\SEQ\ENUM.HPP
C:\VCPKG\INSTALLED\X64-WINDOWS\INCLUDE\BOOST\CONCEPT\DETAIL\CONCEPT_UNDEF.HPP
C:\VCPKG\INSTALLED\X64-WINDOWS\INCLUDE\BOOST\ITERATOR\ITERATOR_CONCEPTS.HPP
C:\VCPKG\INSTALLED\X64-WINDOWS\INCLUDE\BOOST\RANGE\VALUE_TYPE.HPP
C:\VCPKG\INSTALLED\X64-WINDOWS\INCLUDE\BOOST\RANGE\DETAIL\MISC_CONCEPT.HPP
C:\VCPKG\INSTALLED\X64-WINDOWS\INCLUDE\BOOST\TYPE_TRAITS\MAKE_UNSIGNED.HPP
C:\VCPKG\INSTALLED\X64-WINDOWS\INCLUDE\BOOST\TYPE_TRAITS\IS_SIGNED.HPP
C:\VCPKG\INSTALLED\X64-WINDOWS\INCLUDE\BOOST\TYPE_TRAITS\IS_UNSIGNED.HPP
C:\VCPKG\INSTALLED\X64-WINDOWS\INCLUDE\BOOST\TYPE_TRAITS\ADD_VOLATILE.HPP
C:\VCPKG\INSTALLED\X64-WINDOWS\INCLUDE\BOOST\RANGE\DETAIL\HAS_MEMBER_SIZE.HPP
C:\VCPKG\INSTALLED\X64-WINDOWS\INCLUDE\BOOST\UTILITY.HPP
C:\VCPKG\INSTALLED\X64-WINDOWS\INCLUDE\BOOST\UTILITY\BASE_FROM_MEMBER.HPP
C:\VCPKG\INSTALLED\X64-WINDOWS\INCLUDE\BOOST\UTILITY\BINARY.HPP
C:\VCPKG\INSTALLED\X64-WINDOWS\INCLUDE\BOOST\PREPROCESSOR\CONTROL\DEDUCE_D.HPP
C:\VCPKG\INSTALLED\X64-WINDOWS\INCLUDE\BOOST\PREPROCESSOR\SEQ\CAT.HPP
C:\VCPKG\INSTALLED\X64-WINDOWS\INCLUDE\BOOST\PREPROCESSOR\SEQ\FOLD_LEFT.HPP
C:\VCPKG\INSTALLED\X64-WINDOWS\INCLUDE\BOOST\PREPROCESSOR\SEQ\TRANSFORM.HPP
C:\VCPKG\INSTALLED\X64-WINDOWS\INCLUDE\BOOST\PREPROCESSOR\ARITHMETIC\MOD.HPP
C:\VCPKG\INSTALLED\X64-WINDOWS\INCLUDE\BOOST\PREPROCESSOR\ARITHMETIC\DETAIL\DIV_BASE.HPP
C:\VCPKG\INSTALLED\X64-WINDOWS\INCLUDE\BOOST\PREPROCESSOR\COMPARISON\LESS_EQUAL.HPP
C:\VCPKG\INSTALLED\X64-WINDOWS\INCLUDE\BOOST\PREPROCESSOR\LOGICAL\NOT.HPP
C:\VCPKG\INSTALLED\X64-WINDOWS\INCLUDE\BOOST\UTILITY\IDENTITY_TYPE.HPP
C:\VCPKG\INSTALLED\X64-WINDOWS\INCLUDE\BOOST\TYPE_TRAITS\FUNCTION_TRAITS.HPP
C:\VCPKG\INSTALLED\X64-WINDOWS\INCLUDE\BOOST\CORE\NONCOPYABLE.HPP
C:\VCPKG\INSTALLED\X64-WINDOWS\INCLUDE\BOOST\RANGE\DISTANCE.HPP
C:\VCPKG\INSTALLED\X64-WINDOWS\INCLUDE\BOOST\ITERATOR\DISTANCE.HPP
C:\VCPKG\INSTALLED\X64-WINDOWS\INCLUDE\BOOST\RANGE\EMPTY.HPP
C:\VCPKG\INSTALLED\X64-WINDOWS\INCLUDE\BOOST\RANGE\RBEGIN.HPP
C:\VCPKG\INSTALLED\X64-WINDOWS\INCLUDE\BOOST\RANGE\REVERSE_ITERATOR.HPP
C:\VCPKG\INSTALLED\X64-WINDOWS\INCLUDE\BOOST\ITERATOR\REVERSE_ITERATOR.HPP
C:\VCPKG\INSTALLED\X64-WINDOWS\INCLUDE\BOOST\ITERATOR\ITERATOR_ADAPTOR.HPP
C:\VCPKG\INSTALLED\X64-WINDOWS\INCLUDE\BOOST\RANGE\REND.HPP
C:\VCPKG\INSTALLED\X64-WINDOWS\INCLUDE\BOOST\RANGE\ALGORITHM\EQUAL.HPP
C:\VCPKG\INSTALLED\X64-WINDOWS\INCLUDE\BOOST\RANGE\DETAIL\SAFE_BOOL.HPP
C:\VCPKG\INSTALLED\X64-WINDOWS\INCLUDE\BOOST\NEXT_PRIOR.HPP
C:\VCPKG\INSTALLED\X64-WINDOWS\INCLUDE\BOOST\TYPE_TRAITS\HAS_PLUS.HPP
C:\VCPKG\INSTALLED\X64-WINDOWS\INCLUDE\BOOST\TYPE_TRAITS\DETAIL\HAS_BINARY_OPERATOR.HPP
C:\VCPKG\INSTALLED\X64-WINDOWS\INCLUDE\BOOST\TYPE_TRAITS\MAKE_VOID.HPP
C:\VCPKG\INSTALLED\X64-WINDOWS\INCLUDE\BOOST\TYPE_TRAITS\HAS_PLUS_ASSIGN.HPP
C:\VCPKG\INSTALLED\X64-WINDOWS\INCLUDE\BOOST\TYPE_TRAITS\HAS_MINUS.HPP
C:\VCPKG\INSTALLED\X64-WINDOWS\INCLUDE\BOOST\TYPE_TRAITS\HAS_MINUS_ASSIGN.HPP
C:\VCPKG\INSTALLED\X64-WINDOWS\INCLUDE\BOOST\ITERATOR\ADVANCE.HPP
C:\VCPKG\INSTALLED\X64-WINDOWS\INCLUDE\BOOST\RANGE\ITERATOR_RANGE_IO.HPP
C:\VCPKG\INSTALLED\X64-WINDOWS\INCLUDE\BOOST\IOSTREAMS\DETAIL\STREAMBUF.HPP
C:\VCPKG\INSTALLED\X64-WINDOWS\INCLUDE\BOOST\IOSTREAMS\OPERATIONS_FWD.HPP
C:\VCPKG\INSTALLED\X64-WINDOWS\INCLUDE\BOOST\IOSTREAMS\DETAIL\ADAPTER\NON_BLOCKING_ADAPTER.HPP
C:\VCPKG\INSTALLED\X64-WINDOWS\INCLUDE\BOOST\IOSTREAMS\READ.HPP
C:\VCPKG\INSTALLED\X64-WINDOWS\INCLUDE\BOOST\IOSTREAMS\CHAR_TRAITS.HPP
C:\VCPKG\INSTALLED\X64-WINDOWS\INCLUDE\BOOST\IOSTREAMS\SEEK.HPP
C:\VCPKG\INSTALLED\X64-WINDOWS\INCLUDE\BOOST\IOSTREAMS\WRITE.HPP
C:\VCPKG\INSTALLED\X64-WINDOWS\INCLUDE\BOOST\IOSTREAMS\DETAIL\OPTIONAL.HPP
C:\VCPKG\INSTALLED\X64-WINDOWS\INCLUDE\BOOST\TYPE_TRAITS\ALIGNED_STORAGE.HPP
C:\VCPKG\INSTALLED\X64-WINDOWS\INCLUDE\BOOST\TYPE_TRAITS\ALIGNMENT_OF.HPP
C:\VCPKG\INSTALLED\X64-WINDOWS\INCLUDE\BOOST\TYPE_TRAITS\TYPE_WITH_ALIGNMENT.HPP
C:\VCPKG\INSTALLED\X64-WINDOWS\INCLUDE\BOOST\IOSTREAMS\DETAIL\STREAMBUF\LINKED_STREAMBUF.HPP
C:\VCPKG\INSTALLED\X64-WINDOWS\INCLUDE\BOOST\IOSTREAMS\OPERATIONS.HPP
C:\VCPKG\INSTALLED\X64-WINDOWS\INCLUDE\BOOST\IOSTREAMS\IMBUE.HPP
C:\VCPKG\INSTALLED\X64-WINDOWS\INCLUDE\BOOST\IOSTREAMS\INPUT_SEQUENCE.HPP
C:\VCPKG\INSTALLED\X64-WINDOWS\INCLUDE\BOOST\IOSTREAMS\OPTIMAL_BUFFER_SIZE.HPP
C:\VCPKG\INSTALLED\X64-WINDOWS\INCLUDE\BOOST\IOSTREAMS\OUTPUT_SEQUENCE.HPP
C:\VCPKG\INSTALLED\X64-WINDOWS\INCLUDE\BOOST\IOSTREAMS\DETAIL\STREAMBUF\INDIRECT_STREAMBUF.HPP
C:\PROGRAM FILES (X86)\MICROSOFT VISUAL STUDIO\2019\COMMUNITY\VC\TOOLS\MSVC\14.29.30133\INCLUDE\CASSERT
C:\VCPKG\INSTALLED\X64-WINDOWS\INCLUDE\BOOST\IOSTREAMS\DETAIL\ADAPTER\CONCEPT_ADAPTER.HPP
C:\VCPKG\INSTALLED\X64-WINDOWS\INCLUDE\BOOST\IOSTREAMS\CONCEPTS.HPP
C:\VCPKG\INSTALLED\X64-WINDOWS\INCLUDE\BOOST\IOSTREAMS\DETAIL\DEFAULT_ARG.HPP
C:\VCPKG\INSTALLED\X64-WINDOWS\INCLUDE\BOOST\IOSTREAMS\DETAIL\CALL_TRAITS.HPP
C:\VCPKG\INSTALLED\X64-WINDOWS\INCLUDE\BOOST\IOSTREAMS\DETAIL\CONFIG\UNREACHABLE_RETURN.HPP
C:\VCPKG\INSTALLED\X64-WINDOWS\INCLUDE\BOOST\IOSTREAMS\DEVICE\NULL.HPP
C:\VCPKG\INSTALLED\X64-WINDOWS\INCLUDE\BOOST\IOSTREAMS\DETAIL\BUFFER.HPP
C:\VCPKG\INSTALLED\X64-WINDOWS\INCLUDE\BOOST\IOSTREAMS\CHECKED_OPERATIONS.HPP
C:\VCPKG\INSTALLED\X64-WINDOWS\INCLUDE\BOOST\IOSTREAMS\GET.HPP
C:\VCPKG\INSTALLED\X64-WINDOWS\INCLUDE\BOOST\IOSTREAMS\PUT.HPP
C:\VCPKG\INSTALLED\X64-WINDOWS\INCLUDE\BOOST\IOSTREAMS\DETAIL\DOUBLE_OBJECT.HPP
C:\VCPKG\INSTALLED\X64-WINDOWS\INCLUDE\BOOST\CALL_TRAITS.HPP
C:\VCPKG\INSTALLED\X64-WINDOWS\INCLUDE\BOOST\DETAIL\CALL_TRAITS.HPP
C:\VCPKG\INSTALLED\X64-WINDOWS\INCLUDE\BOOST\IOSTREAMS\DETAIL\PUSH.HPP
C:\VCPKG\INSTALLED\X64-WINDOWS\INCLUDE\BOOST\IOSTREAMS\DETAIL\ADAPTER\RANGE_ADAPTER.HPP
C:\VCPKG\INSTALLED\X64-WINDOWS\INCLUDE\BOOST\IOSTREAMS\PIPELINE.HPP
C:\VCPKG\INSTALLED\X64-WINDOWS\INCLUDE\BOOST\IOSTREAMS\DETAIL\RESOLVE.HPP
C:\VCPKG\INSTALLED\X64-WINDOWS\INCLUDE\BOOST\DETAIL\IS_INCREMENTABLE.HPP
C:\VCPKG\INSTALLED\X64-WINDOWS\INCLUDE\BOOST\TYPE_TRAITS\DETAIL\BOOL_TRAIT_UNDEF.HPP
C:\VCPKG\INSTALLED\X64-WINDOWS\INCLUDE\BOOST\IOSTREAMS\DETAIL\ADAPTER\MODE_ADAPTER.HPP
C:\VCPKG\INSTALLED\X64-WINDOWS\INCLUDE\BOOST\IOSTREAMS\DETAIL\ADAPTER\OUTPUT_ITERATOR_ADAPTER.HPP
C:\VCPKG\INSTALLED\X64-WINDOWS\INCLUDE\BOOST\IOSTREAMS\DETAIL\IS_DEREFERENCEABLE.HPP
C:\VCPKG\INSTALLED\X64-WINDOWS\INCLUDE\BOOST\IOSTREAMS\DEVICE\ARRAY.HPP
C:\VCPKG\INSTALLED\X64-WINDOWS\INCLUDE\BOOST\TUPLE\TUPLE.HPP
C:\VCPKG\INSTALLED\X64-WINDOWS\INCLUDE\BOOST\TUPLE\DETAIL\TUPLE_BASIC.HPP
C:\VCPKG\INSTALLED\X64-WINDOWS\INCLUDE\BOOST\TYPE_TRAITS\CV_TRAITS.HPP
C:\VCPKG\INSTALLED\X64-WINDOWS\INCLUDE\BOOST\TYPE_TRAITS\ADD_CV.HPP
C:\VCPKG\INSTALLED\X64-WINDOWS\INCLUDE\BOOST\TYPE_TRAITS\REMOVE_VOLATILE.HPP
C:\VCPKG\INSTALLED\X64-WINDOWS\INCLUDE\BOOST\UTILITY\SWAP.HPP
C:\VCPKG\INSTALLED\X64-WINDOWS\INCLUDE\BOOST\CORE\SWAP.HPP
C:\VCPKG\INSTALLED\X64-WINDOWS\INCLUDE\BOOST\FILESYSTEM.HPP
C:\VCPKG\INSTALLED\X64-WINDOWS\INCLUDE\BOOST\FILESYSTEM\CONFIG.HPP
C:\VCPKG\INSTALLED\X64-WINDOWS\INCLUDE\BOOST\SYSTEM\API_CONFIG.HPP
C:\VCPKG\INSTALLED\X64-WINDOWS\INCLUDE\BOOST\FILESYSTEM\PATH.HPP
C:\VCPKG\INSTALLED\X64-WINDOWS\INCLUDE\BOOST\FILESYSTEM\DETAIL\PATH_TRAITS.HPP
C:\PROGRAM FILES (X86)\MICROSOFT VISUAL STUDIO\2019\COMMUNITY\VC\TOOLS\MSVC\14.29.30133\INCLUDE\STRING_VIEW
C:\VCPKG\INSTALLED\X64-WINDOWS\INCLUDE\BOOST\SYSTEM\ERROR_CATEGORY.HPP
C:\VCPKG\INSTALLED\X64-WINDOWS\INCLUDE\BOOST\SYSTEM\DETAIL\ERROR_CATEGORY.HPP
C:\VCPKG\INSTALLED\X64-WINDOWS\INCLUDE\BOOST\SYSTEM\DETAIL\CONFIG.HPP
C:\VCPKG\INSTALLED\X64-WINDOWS\INCLUDE\BOOST\SYSTEM\DETAIL\REQUIRES_CXX11.HPP
C:\VCPKG\INSTALLED\X64-WINDOWS\INCLUDE\BOOST\SYSTEM\DETAIL\ERROR_CATEGORY_IMPL.HPP
C:\VCPKG\INSTALLED\X64-WINDOWS\INCLUDE\BOOST\SYSTEM\DETAIL\ERROR_CONDITION.HPP
C:\VCPKG\INSTALLED\X64-WINDOWS\INCLUDE\BOOST\SYSTEM\DETAIL\GENERIC_CATEGORY.HPP
C:\VCPKG\INSTALLED\X64-WINDOWS\INCLUDE\BOOST\SYSTEM\DETAIL\GENERIC_CATEGORY_MESSAGE.HPP
C:\VCPKG\INSTALLED\X64-WINDOWS\INCLUDE\BOOST\SYSTEM\DETAIL\ENABLE_IF.HPP
C:\VCPKG\INSTALLED\X64-WINDOWS\INCLUDE\BOOST\SYSTEM\DETAIL\IS_SAME.HPP
C:\VCPKG\INSTALLED\X64-WINDOWS\INCLUDE\BOOST\SYSTEM\DETAIL\ERRC.HPP
C:\VCPKG\INSTALLED\X64-WINDOWS\INCLUDE\BOOST\SYSTEM\IS_ERROR_CONDITION_ENUM.HPP
C:\VCPKG\INSTALLED\X64-WINDOWS\INCLUDE\BOOST\SYSTEM\DETAIL\CERRNO.HPP
C:\VCPKG\INSTALLED\X64-WINDOWS\INCLUDE\BOOST\SYSTEM\DETAIL\APPEND_INT.HPP
C:\VCPKG\INSTALLED\X64-WINDOWS\INCLUDE\BOOST\SYSTEM\DETAIL\SNPRINTF.HPP
C:\PROGRAM FILES (X86)\MICROSOFT VISUAL STUDIO\2019\COMMUNITY\VC\TOOLS\MSVC\14.29.30133\INCLUDE\CSTDARG
C:\PROGRAM FILES (X86)\MICROSOFT VISUAL STUDIO\2019\COMMUNITY\VC\TOOLS\MSVC\14.29.30133\INCLUDE\STDARG.H
C:\VCPKG\INSTALLED\X64-WINDOWS\INCLUDE\BOOST\SYSTEM\DETAIL\ERROR_CODE.HPP
C:\VCPKG\INSTALLED\X64-WINDOWS\INCLUDE\BOOST\SYSTEM\IS_ERROR_CODE_ENUM.HPP
C:\VCPKG\INSTALLED\X64-WINDOWS\INCLUDE\BOOST\SYSTEM\DETAIL\SYSTEM_CATEGORY.HPP
C:\VCPKG\INSTALLED\X64-WINDOWS\INCLUDE\BOOST\SYSTEM\DETAIL\SYSTEM_CATEGORY_IMPL.HPP
C:\VCPKG\INSTALLED\X64-WINDOWS\INCLUDE\BOOST\SYSTEM\DETAIL\SYSTEM_CATEGORY_MESSAGE.HPP
C:\VCPKG\INSTALLED\X64-WINDOWS\INCLUDE\BOOST\SYSTEM\DETAIL\SYSTEM_CATEGORY_MESSAGE_WIN32.HPP
C:\VCPKG\INSTALLED\X64-WINDOWS\INCLUDE\BOOST\WINAPI\ERROR_HANDLING.HPP
C:\VCPKG\INSTALLED\X64-WINDOWS\INCLUDE\BOOST\WINAPI\BASIC_TYPES.HPP
C:\VCPKG\INSTALLED\X64-WINDOWS\INCLUDE\BOOST\WINAPI\CONFIG.HPP
C:\VCPKG\INSTALLED\X64-WINDOWS\INCLUDE\BOOST\PREDEF\VERSION_NUMBER.H
C:\VCPKG\INSTALLED\X64-WINDOWS\INCLUDE\BOOST\PREDEF\PLATFORM.H
C:\VCPKG\INSTALLED\X64-WINDOWS\INCLUDE\BOOST\PREDEF\PLATFORM\ANDROID.H
C:\VCPKG\INSTALLED\X64-WINDOWS\INCLUDE\BOOST\PREDEF\MAKE.H
C:\VCPKG\INSTALLED\X64-WINDOWS\INCLUDE\BOOST\PREDEF\DETAIL\TEST.H
C:\VCPKG\INSTALLED\X64-WINDOWS\INCLUDE\BOOST\PREDEF\PLATFORM\CLOUDABI.H
C:\VCPKG\INSTALLED\X64-WINDOWS\INCLUDE\BOOST\PREDEF\PLATFORM\MINGW.H
C:\VCPKG\INSTALLED\X64-WINDOWS\INCLUDE\BOOST\PREDEF\PLATFORM\MINGW32.H
C:\VCPKG\INSTALLED\X64-WINDOWS\INCLUDE\BOOST\PREDEF\PLATFORM\MINGW64.H
C:\VCPKG\INSTALLED\X64-WINDOWS\INCLUDE\BOOST\PREDEF\PLATFORM\WINDOWS_UWP.H
C:\VCPKG\INSTALLED\X64-WINDOWS\INCLUDE\BOOST\PREDEF\OS\WINDOWS.H
C:\VCPKG\INSTALLED\X64-WINDOWS\INCLUDE\BOOST\PREDEF\DETAIL\OS_DETECTED.H
C:\PROGRAM FILES (X86)\WINDOWS KITS\10\INCLUDE\10.0.19041.0\SHARED\NTVERP.H
C:\PROGRAM FILES (X86)\WINDOWS KITS\10\INCLUDE\10.0.19041.0\SHARED\NTVERP.VER
C:\VCPKG\INSTALLED\X64-WINDOWS\INCLUDE\BOOST\PREDEF\DETAIL\PLATFORM_DETECTED.H
C:\PROGRAM FILES (X86)\WINDOWS KITS\10\INCLUDE\10.0.19041.0\SHARED\WINAPIFAMILY.H
C:\PROGRAM FILES (X86)\WINDOWS KITS\10\INCLUDE\10.0.19041.0\SHARED\WINPACKAGEFAMILY.H
C:\VCPKG\INSTALLED\X64-WINDOWS\INCLUDE\BOOST\PREDEF\PLATFORM\WINDOWS_DESKTOP.H
C:\VCPKG\INSTALLED\X64-WINDOWS\INCLUDE\BOOST\PREDEF\PLATFORM\WINDOWS_PHONE.H
C:\VCPKG\INSTALLED\X64-WINDOWS\INCLUDE\BOOST\PREDEF\PLATFORM\WINDOWS_SERVER.H
C:\VCPKG\INSTALLED\X64-WINDOWS\INCLUDE\BOOST\PREDEF\PLATFORM\WINDOWS_STORE.H
C:\VCPKG\INSTALLED\X64-WINDOWS\INCLUDE\BOOST\PREDEF\PLATFORM\WINDOWS_SYSTEM.H
C:\VCPKG\INSTALLED\X64-WINDOWS\INCLUDE\BOOST\PREDEF\PLATFORM\WINDOWS_RUNTIME.H
C:\VCPKG\INSTALLED\X64-WINDOWS\INCLUDE\BOOST\PREDEF\PLATFORM\IOS.H
C:\VCPKG\INSTALLED\X64-WINDOWS\INCLUDE\BOOST\PREDEF\OS\IOS.H
C:\VCPKG\INSTALLED\X64-WINDOWS\INCLUDE\BOOST\WINAPI\DETAIL\HEADER.HPP
C:\VCPKG\INSTALLED\X64-WINDOWS\INCLUDE\BOOST\WINAPI\DETAIL\FOOTER.HPP
C:\VCPKG\INSTALLED\X64-WINDOWS\INCLUDE\BOOST\WINAPI\GET_LAST_ERROR.HPP
C:\VCPKG\INSTALLED\X64-WINDOWS\INCLUDE\BOOST\WINAPI\CHARACTER_CODE_CONVERSION.HPP
C:\VCPKG\INSTALLED\X64-WINDOWS\INCLUDE\BOOST\WINAPI\LOCAL_MEMORY.HPP
C:\VCPKG\INSTALLED\X64-WINDOWS\INCLUDE\BOOST\SYSTEM\DETAIL\SYSTEM_CATEGORY_CONDITION_WIN32.HPP
C:\VCPKG\INSTALLED\X64-WINDOWS\INCLUDE\BOOST\WINAPI\ERROR_CODES.HPP
C:\VCPKG\INSTALLED\X64-WINDOWS\INCLUDE\BOOST\SYSTEM\DETAIL\INTEROP_CATEGORY.HPP
C:\VCPKG\INSTALLED\X64-WINDOWS\INCLUDE\BOOST\SYSTEM\DETAIL\STD_CATEGORY.HPP
C:\VCPKG\INSTALLED\X64-WINDOWS\INCLUDE\BOOST\SYSTEM\DETAIL\STD_CATEGORY_IMPL.HPP
C:\VCPKG\INSTALLED\X64-WINDOWS\INCLUDE\BOOST\SYSTEM\DETAIL\MUTEX.HPP
C:\PROGRAM FILES (X86)\MICROSOFT VISUAL STUDIO\2019\COMMUNITY\VC\TOOLS\MSVC\14.29.30133\INCLUDE\SHARED_MUTEX
C:\PROGRAM FILES (X86)\MICROSOFT VISUAL STUDIO\2019\COMMUNITY\VC\TOOLS\MSVC\14.29.30133\INCLUDE\MUTEX
C:\PROGRAM FILES (X86)\MICROSOFT VISUAL STUDIO\2019\COMMUNITY\VC\TOOLS\MSVC\14.29.30133\INCLUDE\CHRONO
C:\PROGRAM FILES (X86)\MICROSOFT VISUAL STUDIO\2019\COMMUNITY\VC\TOOLS\MSVC\14.29.30133\INCLUDE\RATIO
C:\PROGRAM FILES (X86)\MICROSOFT VISUAL STUDIO\2019\COMMUNITY\VC\TOOLS\MSVC\14.29.30133\INCLUDE\THREAD
C:\PROGRAM FILES (X86)\WINDOWS KITS\10\INCLUDE\10.0.19041.0\UCRT\PROCESS.H
C:\PROGRAM FILES (X86)\WINDOWS KITS\10\INCLUDE\10.0.19041.0\UCRT\CORECRT_STARTUP.H
C:\PROGRAM FILES (X86)\MICROSOFT VISUAL STUDIO\2019\COMMUNITY\VC\TOOLS\MSVC\14.29.30133\INCLUDE\VCRUNTIME_STARTUP.H
C:\PROGRAM FILES (X86)\MICROSOFT VISUAL STUDIO\2019\COMMUNITY\VC\TOOLS\MSVC\14.29.30133\INCLUDE\CONDITION_VARIABLE
C:\VCPKG\INSTALLED\X64-WINDOWS\INCLUDE\BOOST\FILESYSTEM\DETAIL\HEADER.HPP
C:\VCPKG\INSTALLED\X64-WINDOWS\INCLUDE\BOOST\FILESYSTEM\DETAIL\FOOTER.HPP
C:\VCPKG\INSTALLED\X64-WINDOWS\INCLUDE\BOOST\IO\QUOTED.HPP
C:\VCPKG\INSTALLED\X64-WINDOWS\INCLUDE\BOOST\IO\DETAIL\BUFFER_FILL.HPP
C:\VCPKG\INSTALLED\X64-WINDOWS\INCLUDE\BOOST\IO\DETAIL\OSTREAM_GUARD.HPP
C:\VCPKG\INSTALLED\X64-WINDOWS\INCLUDE\BOOST\IO\IOS_STATE.HPP
C:\VCPKG\INSTALLED\X64-WINDOWS\INCLUDE\BOOST\IO_FWD.HPP
C:\VCPKG\INSTALLED\X64-WINDOWS\INCLUDE\BOOST\FUNCTIONAL\HASH_FWD.HPP
C:\VCPKG\INSTALLED\X64-WINDOWS\INCLUDE\BOOST\CONTAINER_HASH\HASH_FWD.HPP
C:\VCPKG\INSTALLED\X64-WINDOWS\INCLUDE\BOOST\TYPE_TRAITS\NEGATION.HPP
C:\VCPKG\INSTALLED\X64-WINDOWS\INCLUDE\BOOST\TYPE_TRAITS\CONJUNCTION.HPP
C:\VCPKG\INSTALLED\X64-WINDOWS\INCLUDE\BOOST\TYPE_TRAITS\DISJUNCTION.HPP
C:\VCPKG\INSTALLED\X64-WINDOWS\INCLUDE\BOOST\FILESYSTEM\EXCEPTION.HPP
C:\VCPKG\INSTALLED\X64-WINDOWS\INCLUDE\BOOST\SYSTEM\ERROR_CODE.HPP
C:\VCPKG\INSTALLED\X64-WINDOWS\INCLUDE\BOOST\SYSTEM\ERROR_CONDITION.HPP
C:\VCPKG\INSTALLED\X64-WINDOWS\INCLUDE\BOOST\SYSTEM\ERRC.HPP
C:\VCPKG\INSTALLED\X64-WINDOWS\INCLUDE\BOOST\SYSTEM\GENERIC_CATEGORY.HPP
C:\VCPKG\INSTALLED\X64-WINDOWS\INCLUDE\BOOST\SYSTEM\SYSTEM_CATEGORY.HPP
C:\VCPKG\INSTALLED\X64-WINDOWS\INCLUDE\BOOST\SYSTEM\DETAIL\THROWS.HPP
C:\VCPKG\INSTALLED\X64-WINDOWS\INCLUDE\BOOST\SYSTEM\SYSTEM_ERROR.HPP
C:\VCPKG\INSTALLED\X64-WINDOWS\INCLUDE\BOOST\SMART_PTR\INTRUSIVE_PTR.HPP
C:\VCPKG\INSTALLED\X64-WINDOWS\INCLUDE\BOOST\CONFIG\NO_TR1\FUNCTIONAL.HPP
C:\VCPKG\INSTALLED\X64-WINDOWS\INCLUDE\BOOST\SMART_PTR\INTRUSIVE_REF_COUNTER.HPP
C:\VCPKG\INSTALLED\X64-WINDOWS\INCLUDE\BOOST\SMART_PTR\DETAIL\ATOMIC_COUNT.HPP
C:\VCPKG\INSTALLED\X64-WINDOWS\INCLUDE\BOOST\SMART_PTR\DETAIL\ATOMIC_COUNT_STD_ATOMIC.HPP
C:\VCPKG\INSTALLED\X64-WINDOWS\INCLUDE\BOOST\FILESYSTEM\DIRECTORY.HPP
C:\VCPKG\INSTALLED\X64-WINDOWS\INCLUDE\BOOST\FILESYSTEM\FILE_STATUS.HPP
C:\VCPKG\INSTALLED\X64-WINDOWS\INCLUDE\BOOST\DETAIL\BITMASK.HPP
C:\VCPKG\INSTALLED\X64-WINDOWS\INCLUDE\BOOST\CORE\SCOPED_ENUM.HPP
C:\VCPKG\INSTALLED\X64-WINDOWS\INCLUDE\BOOST\FILESYSTEM\OPERATIONS.HPP
C:\VCPKG\INSTALLED\X64-WINDOWS\INCLUDE\BOOST\FILESYSTEM\CONVENIENCE.HPP
C:\PROGRAM FILES (X86)\WINDOWS KITS\10\INCLUDE\10.0.19041.0\UM\WINDOWS.H
C:\PROGRAM FILES (X86)\WINDOWS KITS\10\INCLUDE\10.0.19041.0\SHARED\SDKDDKVER.H
C:\PROGRAM FILES (X86)\MICROSOFT VISUAL STUDIO\2019\COMMUNITY\VC\TOOLS\MSVC\14.29.30133\INCLUDE\EXCPT.H
C:\PROGRAM FILES (X86)\WINDOWS KITS\10\INCLUDE\10.0.19041.0\SHARED\WINDEF.H
C:\PROGRAM FILES (X86)\WINDOWS KITS\10\INCLUDE\10.0.19041.0\SHARED\MINWINDEF.H
C:\PROGRAM FILES (X86)\WINDOWS KITS\10\INCLUDE\10.0.19041.0\SHARED\SPECSTRINGS.H
C:\PROGRAM FILES (X86)\WINDOWS KITS\10\INCLUDE\10.0.19041.0\SHARED\SPECSTRINGS_STRICT.H
C:\PROGRAM FILES (X86)\WINDOWS KITS\10\INCLUDE\10.0.19041.0\SHARED\SPECSTRINGS_UNDEF.H
C:\PROGRAM FILES (X86)\WINDOWS KITS\10\INCLUDE\10.0.19041.0\SHARED\DRIVERSPECS.H
C:\PROGRAM FILES (X86)\WINDOWS KITS\10\INCLUDE\10.0.19041.0\SHARED\SDV_DRIVERSPECS.H
C:\PROGRAM FILES (X86)\WINDOWS KITS\10\INCLUDE\10.0.19041.0\UM\WINNT.H
C:\PROGRAM FILES (X86)\WINDOWS KITS\10\INCLUDE\10.0.19041.0\SHARED\KERNELSPECS.H
C:\PROGRAM FILES (X86)\WINDOWS KITS\10\INCLUDE\10.0.19041.0\SHARED\BASETSD.H
C:\PROGRAM FILES (X86)\WINDOWS KITS\10\INCLUDE\10.0.19041.0\SHARED\GUIDDEF.H
C:\PROGRAM FILES (X86)\WINDOWS KITS\10\INCLUDE\10.0.19041.0\SHARED\PSHPACK4.H
C:\PROGRAM FILES (X86)\WINDOWS KITS\10\INCLUDE\10.0.19041.0\SHARED\POPPACK.H
C:\PROGRAM FILES (X86)\WINDOWS KITS\10\INCLUDE\10.0.19041.0\SHARED\PSHPACK2.H
C:\PROGRAM FILES (X86)\WINDOWS KITS\10\INCLUDE\10.0.19041.0\SHARED\PSHPACK8.H
C:\PROGRAM FILES (X86)\WINDOWS KITS\10\INCLUDE\10.0.19041.0\SHARED\PSHPACK1.H
C:\PROGRAM FILES (X86)\WINDOWS KITS\10\INCLUDE\10.0.19041.0\SHARED\APISET.H
C:\PROGRAM FILES (X86)\WINDOWS KITS\10\INCLUDE\10.0.19041.0\SHARED\KTMTYPES.H
C:\PROGRAM FILES (X86)\WINDOWS KITS\10\INCLUDE\10.0.19041.0\UM\WINBASE.H
C:\PROGRAM FILES (X86)\WINDOWS KITS\10\INCLUDE\10.0.19041.0\SHARED\APISETCCONV.H
C:\PROGRAM FILES (X86)\WINDOWS KITS\10\INCLUDE\10.0.19041.0\UM\MINWINBASE.H
C:\PROGRAM FILES (X86)\WINDOWS KITS\10\INCLUDE\10.0.19041.0\UM\APIQUERY2.H
C:\PROGRAM FILES (X86)\WINDOWS KITS\10\INCLUDE\10.0.19041.0\UM\PROCESSENV.H
C:\PROGRAM FILES (X86)\WINDOWS KITS\10\INCLUDE\10.0.19041.0\UM\FILEAPIFROMAPP.H
C:\PROGRAM FILES (X86)\WINDOWS KITS\10\INCLUDE\10.0.19041.0\UM\FILEAPI.H
C:\PROGRAM FILES (X86)\WINDOWS KITS\10\INCLUDE\10.0.19041.0\UM\DEBUGAPI.H
C:\PROGRAM FILES (X86)\WINDOWS KITS\10\INCLUDE\10.0.19041.0\UM\UTILAPISET.H
C:\PROGRAM FILES (X86)\WINDOWS KITS\10\INCLUDE\10.0.19041.0\UM\HANDLEAPI.H
C:\PROGRAM FILES (X86)\WINDOWS KITS\10\INCLUDE\10.0.19041.0\UM\ERRHANDLINGAPI.H
C:\PROGRAM FILES (X86)\WINDOWS KITS\10\INCLUDE\10.0.19041.0\UM\FIBERSAPI.H
C:\PROGRAM FILES (X86)\WINDOWS KITS\10\INCLUDE\10.0.19041.0\UM\NAMEDPIPEAPI.H
C:\PROGRAM FILES (X86)\WINDOWS KITS\10\INCLUDE\10.0.19041.0\UM\PROFILEAPI.H
C:\PROGRAM FILES (X86)\WINDOWS KITS\10\INCLUDE\10.0.19041.0\UM\HEAPAPI.H
C:\PROGRAM FILES (X86)\WINDOWS KITS\10\INCLUDE\10.0.19041.0\UM\IOAPISET.H
C:\PROGRAM FILES (X86)\WINDOWS KITS\10\INCLUDE\10.0.19041.0\UM\SYNCHAPI.H
C:\PROGRAM FILES (X86)\WINDOWS KITS\10\INCLUDE\10.0.19041.0\UM\INTERLOCKEDAPI.H
C:\PROGRAM FILES (X86)\WINDOWS KITS\10\INCLUDE\10.0.19041.0\UM\PROCESSTHREADSAPI.H
C:\PROGRAM FILES (X86)\WINDOWS KITS\10\INCLUDE\10.0.19041.0\UM\SYSINFOAPI.H
C:\PROGRAM FILES (X86)\WINDOWS KITS\10\INCLUDE\10.0.19041.0\UM\MEMORYAPI.H
C:\PROGRAM FILES (X86)\WINDOWS KITS\10\INCLUDE\10.0.19041.0\UM\ENCLAVEAPI.H
C:\PROGRAM FILES (X86)\WINDOWS KITS\10\INCLUDE\10.0.19041.0\UM\THREADPOOLLEGACYAPISET.H
C:\PROGRAM FILES (X86)\WINDOWS KITS\10\INCLUDE\10.0.19041.0\UM\THREADPOOLAPISET.H
C:\PROGRAM FILES (X86)\WINDOWS KITS\10\INCLUDE\10.0.19041.0\UM\JOBAPI.H
C:\PROGRAM FILES (X86)\WINDOWS KITS\10\INCLUDE\10.0.19041.0\UM\JOBAPI2.H
C:\PROGRAM FILES (X86)\WINDOWS KITS\10\INCLUDE\10.0.19041.0\UM\WOW64APISET.H
C:\PROGRAM FILES (X86)\WINDOWS KITS\10\INCLUDE\10.0.19041.0\UM\LIBLOADERAPI.H
C:\PROGRAM FILES (X86)\WINDOWS KITS\10\INCLUDE\10.0.19041.0\UM\SECURITYBASEAPI.H
C:\PROGRAM FILES (X86)\WINDOWS KITS\10\INCLUDE\10.0.19041.0\UM\NAMESPACEAPI.H
C:\PROGRAM FILES (X86)\WINDOWS KITS\10\INCLUDE\10.0.19041.0\UM\SYSTEMTOPOLOGYAPI.H
C:\PROGRAM FILES (X86)\WINDOWS KITS\10\INCLUDE\10.0.19041.0\UM\PROCESSTOPOLOGYAPI.H
C:\PROGRAM FILES (X86)\WINDOWS KITS\10\INCLUDE\10.0.19041.0\UM\SECURITYAPPCONTAINER.H
C:\PROGRAM FILES (X86)\WINDOWS KITS\10\INCLUDE\10.0.19041.0\UM\REALTIMEAPISET.H
C:\PROGRAM FILES (X86)\WINDOWS KITS\10\INCLUDE\10.0.19041.0\SHARED\WINERROR.H
C:\PROGRAM FILES (X86)\WINDOWS KITS\10\INCLUDE\10.0.19041.0\UM\TIMEZONEAPI.H
C:\PROGRAM FILES (X86)\WINDOWS KITS\10\INCLUDE\10.0.19041.0\UM\WINGDI.H
C:\PROGRAM FILES (X86)\WINDOWS KITS\10\INCLUDE\10.0.19041.0\UM\WINUSER.H
C:\PROGRAM FILES (X86)\WINDOWS KITS\10\INCLUDE\10.0.19041.0\SHARED\TVOUT.H
C:\PROGRAM FILES (X86)\WINDOWS KITS\10\INCLUDE\10.0.19041.0\UM\WINNLS.H
C:\PROGRAM FILES (X86)\WINDOWS KITS\10\INCLUDE\10.0.19041.0\UM\DATETIMEAPI.H
C:\PROGRAM FILES (X86)\WINDOWS KITS\10\INCLUDE\10.0.19041.0\UM\STRINGAPISET.H
C:\PROGRAM FILES (X86)\WINDOWS KITS\10\INCLUDE\10.0.19041.0\UM\WINCON.H
C:\PROGRAM FILES (X86)\WINDOWS KITS\10\INCLUDE\10.0.19041.0\UM\WINCONTYPES.H
C:\PROGRAM FILES (X86)\WINDOWS KITS\10\INCLUDE\10.0.19041.0\UM\CONSOLEAPI.H
C:\PROGRAM FILES (X86)\WINDOWS KITS\10\INCLUDE\10.0.19041.0\UM\CONSOLEAPI2.H
C:\PROGRAM FILES (X86)\WINDOWS KITS\10\INCLUDE\10.0.19041.0\UM\CONSOLEAPI3.H
C:\PROGRAM FILES (X86)\WINDOWS KITS\10\INCLUDE\10.0.19041.0\UM\WINVER.H
C:\PROGRAM FILES (X86)\WINDOWS KITS\10\INCLUDE\10.0.19041.0\UM\VERRSRC.H
C:\PROGRAM FILES (X86)\WINDOWS KITS\10\INCLUDE\10.0.19041.0\UM\WINREG.H
C:\PROGRAM FILES (X86)\WINDOWS KITS\10\INCLUDE\10.0.19041.0\UM\REASON.H
C:\PROGRAM FILES (X86)\WINDOWS KITS\10\INCLUDE\10.0.19041.0\UM\WINNETWK.H
C:\PROGRAM FILES (X86)\WINDOWS KITS\10\INCLUDE\10.0.19041.0\SHARED\WNNC.H
C:\PROGRAM FILES (X86)\WINDOWS KITS\10\INCLUDE\10.0.19041.0\SHARED\CDERR.H
C:\PROGRAM FILES (X86)\WINDOWS KITS\10\INCLUDE\10.0.19041.0\UM\DDE.H
C:\PROGRAM FILES (X86)\WINDOWS KITS\10\INCLUDE\10.0.19041.0\UM\DDEML.H
C:\PROGRAM FILES (X86)\WINDOWS KITS\10\INCLUDE\10.0.19041.0\UM\DLGS.H
C:\PROGRAM FILES (X86)\WINDOWS KITS\10\INCLUDE\10.0.19041.0\UM\LZEXPAND.H
C:\PROGRAM FILES (X86)\WINDOWS KITS\10\INCLUDE\10.0.19041.0\UM\MMSYSTEM.H
C:\PROGRAM FILES (X86)\WINDOWS KITS\10\INCLUDE\10.0.19041.0\UM\MMSYSCOM.H
C:\PROGRAM FILES (X86)\WINDOWS KITS\10\INCLUDE\10.0.19041.0\UM\MCIAPI.H
C:\PROGRAM FILES (X86)\WINDOWS KITS\10\INCLUDE\10.0.19041.0\UM\MMISCAPI.H
C:\PROGRAM FILES (X86)\WINDOWS KITS\10\INCLUDE\10.0.19041.0\UM\MMISCAPI2.H
C:\PROGRAM FILES (X86)\WINDOWS KITS\10\INCLUDE\10.0.19041.0\UM\PLAYSOUNDAPI.H
C:\PROGRAM FILES (X86)\WINDOWS KITS\10\INCLUDE\10.0.19041.0\UM\MMEAPI.H
C:\PROGRAM FILES (X86)\WINDOWS KITS\10\INCLUDE\10.0.19041.0\UM\TIMEAPI.H
C:\PROGRAM FILES (X86)\WINDOWS KITS\10\INCLUDE\10.0.19041.0\UM\JOYSTICKAPI.H
C:\PROGRAM FILES (X86)\WINDOWS KITS\10\INCLUDE\10.0.19041.0\UM\NB30.H
C:\PROGRAM FILES (X86)\WINDOWS KITS\10\INCLUDE\10.0.19041.0\SHARED\RPC.H
C:\PROGRAM FILES (X86)\WINDOWS KITS\10\INCLUDE\10.0.19041.0\SHARED\RPCDCE.H
C:\PROGRAM FILES (X86)\WINDOWS KITS\10\INCLUDE\10.0.19041.0\SHARED\RPCDCEP.H
C:\PROGRAM FILES (X86)\WINDOWS KITS\10\INCLUDE\10.0.19041.0\UM\RPCNSI.H
C:\PROGRAM FILES (X86)\WINDOWS KITS\10\INCLUDE\10.0.19041.0\SHARED\RPCNTERR.H
C:\PROGRAM FILES (X86)\WINDOWS KITS\10\INCLUDE\10.0.19041.0\SHARED\RPCASYNC.H
C:\PROGRAM FILES (X86)\WINDOWS KITS\10\INCLUDE\10.0.19041.0\UM\SHELLAPI.H
C:\PROGRAM FILES (X86)\WINDOWS KITS\10\INCLUDE\10.0.19041.0\UM\WINPERF.H
C:\PROGRAM FILES (X86)\WINDOWS KITS\10\INCLUDE\10.0.19041.0\UM\WINSOCK.H
C:\PROGRAM FILES (X86)\WINDOWS KITS\10\INCLUDE\10.0.19041.0\SHARED\INADDR.H
C:\PROGRAM FILES (X86)\WINDOWS KITS\10\INCLUDE\10.0.19041.0\UM\WINCRYPT.H
C:\PROGRAM FILES (X86)\WINDOWS KITS\10\INCLUDE\10.0.19041.0\SHARED\BCRYPT.H
C:\PROGRAM FILES (X86)\WINDOWS KITS\10\INCLUDE\10.0.19041.0\UM\NCRYPT.H
C:\PROGRAM FILES (X86)\WINDOWS KITS\10\INCLUDE\10.0.19041.0\UM\DPAPI.H
C:\PROGRAM FILES (X86)\WINDOWS KITS\10\INCLUDE\10.0.19041.0\UM\WINEFS.H
C:\PROGRAM FILES (X86)\WINDOWS KITS\10\INCLUDE\10.0.19041.0\UM\WINSCARD.H
C:\PROGRAM FILES (X86)\WINDOWS KITS\10\INCLUDE\10.0.19041.0\SHARED\WTYPES.H
C:\PROGRAM FILES (X86)\WINDOWS KITS\10\INCLUDE\10.0.19041.0\SHARED\RPCNDR.H
C:\PROGRAM FILES (X86)\WINDOWS KITS\10\INCLUDE\10.0.19041.0\UM\RPCNSIP.H
C:\PROGRAM FILES (X86)\WINDOWS KITS\10\INCLUDE\10.0.19041.0\SHARED\RPCSAL.H
C:\PROGRAM FILES (X86)\WINDOWS KITS\10\INCLUDE\10.0.19041.0\SHARED\WTYPESBASE.H
C:\PROGRAM FILES (X86)\WINDOWS KITS\10\INCLUDE\10.0.19041.0\UM\WINIOCTL.H
C:\PROGRAM FILES (X86)\WINDOWS KITS\10\INCLUDE\10.0.19041.0\SHARED\WINSMCRD.H
C:\PROGRAM FILES (X86)\WINDOWS KITS\10\INCLUDE\10.0.19041.0\UM\WINSPOOL.H
C:\PROGRAM FILES (X86)\WINDOWS KITS\10\INCLUDE\10.0.19041.0\UM\PRSHT.H
C:\PROGRAM FILES (X86)\WINDOWS KITS\10\INCLUDE\10.0.19041.0\UM\OLE2.H
C:\PROGRAM FILES (X86)\WINDOWS KITS\10\INCLUDE\10.0.19041.0\UM\OBJBASE.H
C:\PROGRAM FILES (X86)\WINDOWS KITS\10\INCLUDE\10.0.19041.0\UM\COMBASEAPI.H
C:\PROGRAM FILES (X86)\WINDOWS KITS\10\INCLUDE\10.0.19041.0\UM\UNKNWNBASE.H
C:\PROGRAM FILES (X86)\WINDOWS KITS\10\INCLUDE\10.0.19041.0\UM\OBJIDLBASE.H
C:\PROGRAM FILES (X86)\WINDOWS KITS\10\INCLUDE\10.0.19041.0\UM\CGUID.H
C:\PROGRAM FILES (X86)\WINDOWS KITS\10\INCLUDE\10.0.19041.0\UM\COML2API.H
C:\PROGRAM FILES (X86)\WINDOWS KITS\10\INCLUDE\10.0.19041.0\UM\OBJIDL.H
C:\PROGRAM FILES (X86)\WINDOWS KITS\10\INCLUDE\10.0.19041.0\UM\UNKNWN.H
C:\PROGRAM FILES (X86)\WINDOWS KITS\10\INCLUDE\10.0.19041.0\UM\PROPIDLBASE.H
C:\PROGRAM FILES (X86)\WINDOWS KITS\10\INCLUDE\10.0.19041.0\UM\OAIDL.H
C:\PROGRAM FILES (X86)\WINDOWS KITS\10\INCLUDE\10.0.19041.0\UM\URLMON.H
C:\PROGRAM FILES (X86)\WINDOWS KITS\10\INCLUDE\10.0.19041.0\UM\OLEIDL.H
C:\PROGRAM FILES (X86)\WINDOWS KITS\10\INCLUDE\10.0.19041.0\UM\SERVPROV.H
C:\PROGRAM FILES (X86)\WINDOWS KITS\10\INCLUDE\10.0.19041.0\UM\MSXML.H
C:\PROGRAM FILES (X86)\WINDOWS KITS\10\INCLUDE\10.0.19041.0\UM\PROPIDL.H
C:\PROGRAM FILES (X86)\WINDOWS KITS\10\INCLUDE\10.0.19041.0\UM\OLEAUTO.H
C:\PROGRAM FILES (X86)\WINDOWS KITS\10\INCLUDE\10.0.19041.0\UM\COMMDLG.H
C:\PROGRAM FILES (X86)\WINDOWS KITS\10\INCLUDE\10.0.19041.0\SHARED\STRALIGN.H
C:\PROGRAM FILES (X86)\WINDOWS KITS\10\INCLUDE\10.0.19041.0\UM\WINSVC.H
C:\PROGRAM FILES (X86)\WINDOWS KITS\10\INCLUDE\10.0.19041.0\UM\MCX.H
C:\PROGRAM FILES (X86)\WINDOWS KITS\10\INCLUDE\10.0.19041.0\UM\IMM.H
C:\PROGRAM FILES (X86)\WINDOWS KITS\10\INCLUDE\10.0.19041.0\UM\IME_CMODES.H
C:\USERS\ADMIN\SOURCE\REPOS\BEAMFORMING_MAIN\BEAMFORMING_MAIN\MATHEMATICAL_FUNCTIONS.H
C:\PROGRAM FILES (X86)\WINDOWS KITS\10\INCLUDE\10.0.19041.0\UCRT\CORECRT_MATH_DEFINES.H
C:\OPENCV\BUILD\INCLUDE\OPENCV2\OPENCV.HPP
C:\OPENCV\BUILD\INCLUDE\OPENCV2\OPENCV_MODULES.HPP
C:\OPENCV\BUILD\INCLUDE\OPENCV2\CORE.HPP
C:\OPENCV\BUILD\INCLUDE\OPENCV2\CORE\CVDEF.H
C:\OPENCV\BUILD\INCLUDE\OPENCV2\CORE\VERSION.HPP
C:\OPENCV\BUILD\INCLUDE\OPENCV2\CORE\HAL\INTERFACE.H
C:\OPENCV\BUILD\INCLUDE\OPENCV2\CORE\CV_CPU_DISPATCH.H
C:\PROGRAM FILES (X86)\MICROSOFT VISUAL STUDIO\2019\COMMUNITY\VC\TOOLS\MSVC\14.29.30133\INCLUDE\INTRIN.H
C:\PROGRAM FILES (X86)\MICROSOFT VISUAL STUDIO\2019\COMMUNITY\VC\TOOLS\MSVC\14.29.30133\INCLUDE\SETJMP.H
C:\PROGRAM FILES (X86)\MICROSOFT VISUAL STUDIO\2019\COMMUNITY\VC\TOOLS\MSVC\14.29.30133\INCLUDE\IMMINTRIN.H
C:\PROGRAM FILES (X86)\MICROSOFT VISUAL STUDIO\2019\COMMUNITY\VC\TOOLS\MSVC\14.29.30133\INCLUDE\WMMINTRIN.H
C:\PROGRAM FILES (X86)\MICROSOFT VISUAL STUDIO\2019\COMMUNITY\VC\TOOLS\MSVC\14.29.30133\INCLUDE\NMMINTRIN.H
C:\PROGRAM FILES (X86)\MICROSOFT VISUAL STUDIO\2019\COMMUNITY\VC\TOOLS\MSVC\14.29.30133\INCLUDE\SMMINTRIN.H
C:\PROGRAM FILES (X86)\MICROSOFT VISUAL STUDIO\2019\COMMUNITY\VC\TOOLS\MSVC\14.29.30133\INCLUDE\TMMINTRIN.H
C:\PROGRAM FILES (X86)\MICROSOFT VISUAL STUDIO\2019\COMMUNITY\VC\TOOLS\MSVC\14.29.30133\INCLUDE\PMMINTRIN.H
C:\PROGRAM FILES (X86)\MICROSOFT VISUAL STUDIO\2019\COMMUNITY\VC\TOOLS\MSVC\14.29.30133\INCLUDE\ZMMINTRIN.H
C:\PROGRAM FILES (X86)\MICROSOFT VISUAL STUDIO\2019\COMMUNITY\VC\TOOLS\MSVC\14.29.30133\INCLUDE\AMMINTRIN.H
C:\PROGRAM FILES (X86)\MICROSOFT VISUAL STUDIO\2019\COMMUNITY\VC\TOOLS\MSVC\14.29.30133\INCLUDE\ARRAY
C:\OPENCV\BUILD\INCLUDE\OPENCV2\CORE\BASE.HPP
C:\OPENCV\BUILD\INCLUDE\OPENCV2\CORE\CVSTD.HPP
C:\OPENCV\BUILD\INCLUDE\OPENCV2\CORE\CVSTD_WRAPPER.HPP
C:\OPENCV\BUILD\INCLUDE\OPENCV2\CORE\NEON_UTILS.HPP
C:\OPENCV\BUILD\INCLUDE\OPENCV2\CORE\VSX_UTILS.HPP
C:\OPENCV\BUILD\INCLUDE\OPENCV2\CORE\CHECK.HPP
C:\OPENCV\BUILD\INCLUDE\OPENCV2\CORE\TRAITS.HPP
C:\OPENCV\BUILD\INCLUDE\OPENCV2\CORE\MATX.HPP
C:\OPENCV\BUILD\INCLUDE\OPENCV2\CORE\SATURATE.HPP
C:\OPENCV\BUILD\INCLUDE\OPENCV2\CORE\FAST_MATH.HPP
C:\OPENCV\BUILD\INCLUDE\OPENCV2\CORE\TYPES.HPP
C:\OPENCV\BUILD\INCLUDE\OPENCV2\CORE\MAT.HPP
C:\OPENCV\BUILD\INCLUDE\OPENCV2\CORE\BUFFERPOOL.HPP
C:\OPENCV\BUILD\INCLUDE\OPENCV2\CORE\MAT.INL.HPP
C:\OPENCV\BUILD\INCLUDE\OPENCV2\CORE\PERSISTENCE.HPP
C:\OPENCV\BUILD\INCLUDE\OPENCV2\CORE\OPERATIONS.HPP
C:\OPENCV\BUILD\INCLUDE\OPENCV2\CORE\CVSTD.INL.HPP
C:\OPENCV\BUILD\INCLUDE\OPENCV2\CORE\UTILITY.HPP
C:\OPENCV\BUILD\INCLUDE\OPENCV2\CORE\OPTIM.HPP
C:\OPENCV\BUILD\INCLUDE\OPENCV2\CORE\OVX.HPP
C:\OPENCV\BUILD\INCLUDE\OPENCV2\CALIB3D.HPP
C:\OPENCV\BUILD\INCLUDE\OPENCV2\FEATURES2D.HPP
C:\OPENCV\BUILD\INCLUDE\OPENCV2\FLANN\MINIFLANN.HPP
C:\OPENCV\BUILD\INCLUDE\OPENCV2\FLANN\DEFINES.H
C:\OPENCV\BUILD\INCLUDE\OPENCV2\FLANN\CONFIG.H
C:\OPENCV\BUILD\INCLUDE\OPENCV2\CORE\AFFINE.HPP
C:\OPENCV\BUILD\INCLUDE\OPENCV2\DNN.HPP
C:\OPENCV\BUILD\INCLUDE\OPENCV2\DNN\DNN.HPP
C:\OPENCV\BUILD\INCLUDE\OPENCV2\CORE\ASYNC.HPP
C:\OPENCV\BUILD\INCLUDE\OPENCV2\DNN\VERSION.HPP
C:\OPENCV\BUILD\INCLUDE\OPENCV2\DNN\DICT.HPP
C:\PROGRAM FILES (X86)\MICROSOFT VISUAL STUDIO\2019\COMMUNITY\VC\TOOLS\MSVC\14.29.30133\INCLUDE\MAP
C:\PROGRAM FILES (X86)\MICROSOFT VISUAL STUDIO\2019\COMMUNITY\VC\TOOLS\MSVC\14.29.30133\INCLUDE\XTREE
C:\OPENCV\BUILD\INCLUDE\OPENCV2\DNN\LAYER.HPP
C:\OPENCV\BUILD\INCLUDE\OPENCV2\DNN\DNN.INL.HPP
C:\OPENCV\BUILD\INCLUDE\OPENCV2\DNN\UTILS\INFERENCE_ENGINE.HPP
C:\OPENCV\BUILD\INCLUDE\OPENCV2\FLANN.HPP
C:\OPENCV\BUILD\INCLUDE\OPENCV2\FLANN\FLANN_BASE.HPP
C:\OPENCV\BUILD\INCLUDE\OPENCV2\FLANN\GENERAL.H
C:\OPENCV\BUILD\INCLUDE\OPENCV2\FLANN\MATRIX.H
C:\OPENCV\BUILD\INCLUDE\OPENCV2\FLANN\PARAMS.H
C:\OPENCV\BUILD\INCLUDE\OPENCV2\FLANN\ANY.H
C:\OPENCV\BUILD\INCLUDE\OPENCV2\FLANN\SAVING.H
C:\OPENCV\BUILD\INCLUDE\OPENCV2\FLANN\NN_INDEX.H
C:\OPENCV\BUILD\INCLUDE\OPENCV2\FLANN\RESULT_SET.H
C:\PROGRAM FILES (X86)\MICROSOFT VISUAL STUDIO\2019\COMMUNITY\VC\TOOLS\MSVC\14.29.30133\INCLUDE\SET
C:\OPENCV\BUILD\INCLUDE\OPENCV2\FLANN\ALL_INDICES.H
C:\OPENCV\BUILD\INCLUDE\OPENCV2\FLANN\KDTREE_INDEX.H
C:\OPENCV\BUILD\INCLUDE\OPENCV2\FLANN\DYNAMIC_BITSET.H
C:\OPENCV\BUILD\INCLUDE\OPENCV2\FLANN\DIST.H
C:\OPENCV\BUILD\INCLUDE\OPENCV2\FLANN\HEAP.H
C:\OPENCV\BUILD\INCLUDE\OPENCV2\FLANN\ALLOCATOR.H
C:\OPENCV\BUILD\INCLUDE\OPENCV2\FLANN\RANDOM.H
C:\OPENCV\BUILD\INCLUDE\OPENCV2\FLANN\KDTREE_SINGLE_INDEX.H
C:\OPENCV\BUILD\INCLUDE\OPENCV2\FLANN\KMEANS_INDEX.H
C:\OPENCV\BUILD\INCLUDE\OPENCV2\FLANN\LOGGER.H
C:\OPENCV\BUILD\INCLUDE\OPENCV2\FLANN\COMPOSITE_INDEX.H
C:\OPENCV\BUILD\INCLUDE\OPENCV2\FLANN\LINEAR_INDEX.H
C:\OPENCV\BUILD\INCLUDE\OPENCV2\FLANN\HIERARCHICAL_CLUSTERING_INDEX.H
C:\OPENCV\BUILD\INCLUDE\OPENCV2\FLANN\LSH_INDEX.H
C:\OPENCV\BUILD\INCLUDE\OPENCV2\FLANN\LSH_TABLE.H
C:\OPENCV\BUILD\INCLUDE\OPENCV2\FLANN\AUTOTUNED_INDEX.H
C:\OPENCV\BUILD\INCLUDE\OPENCV2\FLANN\GROUND_TRUTH.H
C:\OPENCV\BUILD\INCLUDE\OPENCV2\FLANN\INDEX_TESTING.H
C:\OPENCV\BUILD\INCLUDE\OPENCV2\FLANN\TIMER.H
C:\OPENCV\BUILD\INCLUDE\OPENCV2\FLANN\SAMPLING.H
C:\OPENCV\BUILD\INCLUDE\OPENCV2\HIGHGUI.HPP
C:\OPENCV\BUILD\INCLUDE\OPENCV2\IMGCODECS.HPP
C:\OPENCV\BUILD\INCLUDE\OPENCV2\VIDEOIO.HPP
C:\OPENCV\BUILD\INCLUDE\OPENCV2\IMGPROC.HPP
C:\OPENCV\BUILD\INCLUDE\OPENCV2\IMGPROC\SEGMENTATION.HPP
C:\OPENCV\BUILD\INCLUDE\OPENCV2\ML.HPP
C:\OPENCV\BUILD\INCLUDE\OPENCV2\ML\ML.INL.HPP
C:\OPENCV\BUILD\INCLUDE\OPENCV2\OBJDETECT.HPP
C:\OPENCV\BUILD\INCLUDE\OPENCV2\OBJDETECT\DETECTION_BASED_TRACKER.HPP
C:\OPENCV\BUILD\INCLUDE\OPENCV2\PHOTO.HPP
C:\OPENCV\BUILD\INCLUDE\OPENCV2\STITCHING.HPP
C:\OPENCV\BUILD\INCLUDE\OPENCV2\STITCHING\WARPERS.HPP
C:\OPENCV\BUILD\INCLUDE\OPENCV2\STITCHING\DETAIL\WARPERS.HPP
C:\OPENCV\BUILD\INCLUDE\OPENCV2\CORE\CUDA.HPP
C:\OPENCV\BUILD\INCLUDE\OPENCV2\CORE\CUDA_TYPES.HPP
C:\OPENCV\BUILD\INCLUDE\OPENCV2\CORE\CUDA.INL.HPP
C:\OPENCV\BUILD\INCLUDE\OPENCV2\STITCHING\DETAIL\WARPERS_INL.HPP
C:\OPENCV\BUILD\INCLUDE\OPENCV2\STITCHING\DETAIL\MATCHERS.HPP
C:\OPENCV\BUILD\INCLUDE\OPENCV2\STITCHING\DETAIL\MOTION_ESTIMATORS.HPP
C:\OPENCV\BUILD\INCLUDE\OPENCV2\STITCHING\DETAIL\UTIL.HPP
C:\OPENCV\BUILD\INCLUDE\OPENCV2\STITCHING\DETAIL\UTIL_INL.HPP
C:\PROGRAM FILES (X86)\MICROSOFT VISUAL STUDIO\2019\COMMUNITY\VC\TOOLS\MSVC\14.29.30133\INCLUDE\QUEUE
C:\PROGRAM FILES (X86)\MICROSOFT VISUAL STUDIO\2019\COMMUNITY\VC\TOOLS\MSVC\14.29.30133\INCLUDE\DEQUE
C:\OPENCV\BUILD\INCLUDE\OPENCV2\STITCHING\DETAIL\CAMERA.HPP
C:\OPENCV\BUILD\INCLUDE\OPENCV2\STITCHING\DETAIL\EXPOSURE_COMPENSATE.HPP
C:\OPENCV\BUILD\INCLUDE\OPENCV2\STITCHING\DETAIL\SEAM_FINDERS.HPP
C:\OPENCV\BUILD\INCLUDE\OPENCV2\STITCHING\DETAIL\BLENDERS.HPP
C:\OPENCV\BUILD\INCLUDE\OPENCV2\VIDEO.HPP
C:\OPENCV\BUILD\INCLUDE\OPENCV2\VIDEO\TRACKING.HPP
C:\OPENCV\BUILD\INCLUDE\OPENCV2\VIDEO\BACKGROUND_SEGM.HPP
